﻿نماد,نام,تعداد,حجم,ارزش,دیروز,اولین,آخرین معامله - مقدار,آخرین معامله - تغییر,آخرین معامله - درصد,قیمت پایانی - مقدار,قیمت پایانی - تغییر,قیمت پایانی - درصد,کمترین,بیشترین
سپيدار,سپيدار سيستم آسيا,34833,339905,20266835625,56786,59625,59625,"2,839.00",5.00,57859,"1,073.00",1.89,59625,59625
آوا,صندوق س.سهام آواي معيار-س,23573,308828840,2.62545E+12,7489,7780,8630,"1,141.00",15.24,8501,"1,012.00",13.51,7780,8675
زملارد,كشاورزي و دامپروري ملارد شير,22006,10999180,3.8896E+11,35596,33817,36770,"1,174.00",3.30,35363,-233.00,-0.65,33817,37360
وسپهر,سرمايه گذاري مالي سپهرصادرات,21996,49401233,5.06021E+11,10002,10150,10251,249.00,2.49,10243,241.00,2.41,10103,10365
وكبهمن,مديريت سرمايه گذاري كوثربهمن,20382,12842341,1.80145E+11,13426,13500,14097,671.00,5.00,14027,601.00,4.48,13500,14097
غزر,صنعتي زر ماكارون,19939,8352884,2.4508E+11,28820,28210,29180,360.00,1.25,29340,520.00,1.80,28210,30220
ولپارس,ليزينگ پارسيان,17110,23829203,1.37524E+11,5540,5530,5810,270.00,4.87,5770,230.00,4.15,5350,5810
شاروم,پتروشيمي اروميه,15288,4930418,93534011997,18168,17900,19076,908.00,5.00,18971,803.00,4.42,17900,19076
شستا,سرمايه گذاري تامين اجتماعي,14091,57077056,1.23409E+12,20770,20910,21800,"1,030.00",4.96,21620,850.00,4.09,20910,21800
كزغال,زغال سنگ پروده طبس,13844,1798058,39271384778,20801,21841,21841,"1,040.00",5.00,21567,766.00,3.68,21841,21841
آسيا,بيمه آسيا,12972,297714775,7.56705E+11,2610,2480,2600,-10.00,-0.38,2540,-70.00,-2.68,2480,2680
امين,تامين سرمايه امين,12746,6648146,70418307470,10400,10420,10530,130.00,1.25,10590,190.00,1.83,10420,10800
بوعلي,پتروشيمي بوعلي سينا,12567,3723068,1.62866E+11,41770,42900,43850,"2,080.00",4.98,43750,"1,980.00",4.74,42900,43850
ثبهساز,بهساز كاشانه تهران,12469,57388277,1.43172E+11,2390,2500,2500,110.00,4.60,2490,100.00,4.18,2390,2500
ثاميد,توسعه و عمران اميد,11493,77357431,1.35777E+11,1680,1740,1760,80.00,4.76,1760,80.00,4.76,1680,1760
ثشاهد,سرمايه‌ گذاري‌ شاهد,11465,44293977,9.35067E+11,19460,21000,21590,"2,130.00",10.95,21110,"1,650.00",8.48,19950,21950
سمگا,گروه سرمايه گذاري ميراث فرهنگي,11243,83299772,2.28096E+12,28460,27700,27520,-940.00,-3.30,27383,"-1,077.00",-3.78,27037,29410
سيتا,سرمايه گذاري سيمان تامين,10852,24279706,3.74986E+11,15040,15450,15450,410.00,2.73,15440,400.00,2.66,15200,15690
پالايش,صندوق پالايشي يکم-سهام,10844,13519862,1.08291E+12,73060,79500,80360,"7,300.00",9.99,80100,"7,040.00",9.64,79300,80360
وتوصا,گروه س توسعه صنعتي ايران,10777,73793702,9.61604E+11,13450,12780,13210,-240.00,-1.78,13030,-420.00,-3.12,12780,13650
بپيوند,برق و انرژي پيوندگستر پارس,10528,7512713,1.16152E+11,14830,14510,15571,741.00,5.00,15461,631.00,4.25,14510,15571
كرمان,س. توسعه و عمران استان كرمان,9978,15597662,8.85141E+11,55323,53800,57903,"2,580.00",4.66,56748,"1,425.00",2.58,53800,58089
آبادا,توليد نيروي برق آبادان,9950,3308468,50064772880,14520,14120,15240,720.00,4.96,15130,610.00,4.20,14120,15240
كاما,باما,9116,61447578,9.11233E+11,14380,14100,15090,710.00,4.94,14830,450.00,3.13,13870,15090
توريل,توکاريل,8817,40206138,9.38609E+11,23874,22681,24350,476.00,1.99,23345,-529.00,-2.22,22681,24990
دارا يكم,صندوق واسطه گري مالي يكم-سهام,8746,7304742,1.02246E+12,127500,139000,140250,"12,750.00",10.00,139970,"12,470.00",9.78,139000,140250
پيزد,مجتمع صنايع لاستيك يزد,8560,2415261,1.69935E+11,70796,72220,68880,"-1,916.00",-2.71,70359,-437.00,-0.62,67400,72900
كمرجان,بازرگاني و توليدي مرجان كار,8499,5071709,7.55091E+11,142588,149650,149717,"7,129.00",5.00,148883,"6,295.00",4.41,142973,149717
كرازي,كارخانجات‌توليدي‌شيشه‌رازي‌,8233,16596860,4.48305E+11,27420,27900,26510,-910.00,-3.32,27010,-410.00,-1.50,26050,28490
كوير,توليدي فولاد سپيد فراب كوير,8212,29385808,7.47176E+11,26480,25160,25480,"-1,000.00",-3.78,25430,"-1,050.00",-3.97,25160,27000
غگرجي,بيسكويت‌  گرجي‌,8020,24487605,4.94423E+11,20610,19580,20000,-610.00,-2.96,20190,-420.00,-2.04,19580,21440
رافزا,رايان هم افزا,7985,47066,2036875282,41217,43277,43277,"2,060.00",5.00,41297,80.00,0.19,43277,43277
بگيلان,توسعه مسير برق گيلان,7968,1839662,38965407962,20765,20090,21080,315.00,1.52,21096,331.00,1.59,20090,21500
كلر,كلر پارس,7894,5771416,8.23353E+11,136993,141500,143831,"6,838.00",4.99,142661,"5,668.00",4.14,138700,143842
خودرو,ايران‌ خودرو,7837,347874581,8.93471E+11,2460,2520,2580,120.00,4.88,2570,110.00,4.47,2490,2580
غبهار,كشت وصنعت بهاران گلبهار خراسان,7704,16891065,6.28488E+11,37964,38800,36830,"-1,134.00",-2.99,37208,-756.00,-1.99,36826,38800
آگاس,صندوق س.هستي بخش آگاه-س,7411,17152036,1.16817E+12,62679,63500,68500,"5,821.00",9.29,68107,"5,428.00",8.66,63400,68650
قلرست,قند لرستان‌,7313,19978602,6.52933E+11,33440,31770,31770,"-1,670.00",-4.99,32680,-760.00,-2.27,31770,34870
وآذر,سرمايه‌گذاري‌توسعه‌آذربايجان‌,7227,8879342,7.93648E+11,93530,88860,88870,"-4,660.00",-4.98,89380,"-4,150.00",-4.44,88860,93000
چفيبر,فيبر ايران‌,7097,36537966,5.29757E+11,14610,13880,14470,-140.00,-0.96,14500,-110.00,-0.75,13880,15300
خساپا,سايپا,6741,369812588,8.04299E+11,2080,2170,2180,100.00,4.81,2170,90.00,4.33,2130,2180
ماديرا,صنايع ماشين هاي اداري ايران,6724,45845034,4.33327E+11,9538,9062,9560,22.00,0.23,9452,-86.00,-0.90,9062,9801
شپنا,پالايش نفت اصفهان,6641,69390551,7.74899E+11,10720,10950,11250,530.00,4.94,11170,450.00,4.20,10910,11250
حكشتي,كشتيراني جمهوري اسلامي ايران,6491,40472898,8.49983E+11,20180,19600,21180,"1,000.00",4.96,21000,820.00,4.06,19600,21180
غگلستا,شير پاستوريزه پگاه گلستان,6354,24177160,7.63897E+11,32978,31330,31330,"-1,648.00",-5.00,31596,"-1,382.00",-4.19,31330,32700
غگل,گلوكوزان‌,6318,84667017,3.38136E+11,3830,3940,4020,190.00,4.96,3990,160.00,4.18,3840,4020
كمند,صندوق س. با درآمد ثابت كمند,6314,273796370,2.74409E+12,10019,10023,10023,4.00,0.04,10022,3.00,0.03,10019,10026
آريا,پليمر آريا ساسول,6284,2545045,1.94111E+11,72691,75100,76325,"3,634.00",5.00,76270,"3,579.00",4.92,74500,76325
كسرام,پارس‌ سرام‌,6095,58726164,5.99886E+11,10680,10150,10150,-530.00,-4.96,10210,-470.00,-4.40,10150,10500
حفارس,حمل و نقل بين المللي خليج فارس,6087,74490953,3.9169E+11,5300,5040,5130,-170.00,-3.21,5260,-40.00,-0.75,5040,5520
وتجارت,بانك تجارت,6075,176921182,4.97138E+11,2690,2740,2820,130.00,4.83,2810,120.00,4.46,2730,2820
تكشا,گسترش‌صنايع‌وخدمات‌كشاورزي‌,6068,9748598,4.72307E+11,50720,48190,48210,"-2,510.00",-4.95,48450,"-2,270.00",-4.48,48190,50000
شتران,پالايش نفت تهران,6056,55755067,4.84697E+11,8340,8430,8750,410.00,4.92,8690,350.00,4.20,8420,8750
سرو,صندوق س سروسودمند مدبران-سهام,5973,15032518,1.03031E+12,63330,65870,69660,"6,330.00",10.00,68540,"5,210.00",8.23,65870,69660
پدرخش,درخشان‌ تهران‌,5972,3686120,5.19742E+11,140160,137600,147160,"7,000.00",4.99,141000,840.00,0.60,133160,147160
فملي,ملي‌ صنايع‌ مس‌ ايران‌,5839,42842500,4.25571E+11,9470,9930,9940,470.00,4.96,9930,460.00,4.86,9570,9940
ثاخت,بين‌المللي‌توسعه‌ساختمان,5721,133295975,4.14458E+11,3000,2910,3150,150.00,5.00,3110,110.00,3.67,2910,3150
فمراد,آلومراد,5703,2822588,4.64383E+11,172170,163570,163570,"-8,600.00",-5.00,164520,"-7,650.00",-4.44,163570,170240
ثنوسا,نوسازي‌وساختمان‌تهران‌,5689,38435953,4.84605E+11,12820,12180,12480,-340.00,-2.65,12610,-210.00,-1.64,12180,13300
گكوثر,هتل پارسيان كوثر اصفهان,5529,86079596,2.37922E+11,2824,2683,2740,-84.00,-2.97,2764,-60.00,-2.12,2683,2927
درهآور,دارويي ره آورد تامين,5434,7817115,3.6536E+11,48137,45731,46710,"-1,427.00",-2.96,46738,"-1,399.00",-2.91,45731,49400
خگستر,گسترش‌سرمايه‌گذاري‌ايران‌خودرو,5359,183136227,5.61578E+11,2950,2960,3090,140.00,4.75,3070,120.00,4.07,2960,3090
ذوب,سهامي ذوب آهن  اصفهان,5288,90877643,3.66839E+11,3859,3900,4051,192.00,4.98,4037,178.00,4.61,3900,4051
خرينگ,رينگ‌سازي‌مشهد,5202,10758777,5.31726E+11,51400,48830,49000,"-2,400.00",-4.67,49420,"-1,980.00",-3.85,48830,52500
شلعاب,لعابيران‌,5194,21852304,3.61184E+11,16370,17150,15820,-550.00,-3.36,16530,160.00,0.98,15660,17180
بركت,گروه دارويي بركت,5166,19611390,4.30479E+11,21110,21220,22160,"1,050.00",4.97,21950,840.00,3.98,21220,22160
شسينا,صنايع‌شيميايي‌سينا,5138,5272206,6.4203E+11,127380,121020,125010,"-2,370.00",-1.86,121780,"-5,600.00",-4.40,121020,127300
بترانس,ايران‌ ترانسفو,5080,144093330,3.71201E+11,2470,2440,2590,120.00,4.86,2580,110.00,4.45,2440,2590
فنورد,نوردوقطعات‌ فولادي‌,5021,2004100,4.87782E+11,240820,240000,237600,"-3,220.00",-1.34,243390,"2,570.00",1.07,229010,252860
ديران,ايران‌دارو,4885,12857196,3.67696E+11,29820,28330,28330,"-1,490.00",-5.00,28600,"-1,220.00",-4.09,28330,30770
ساوه,سيمان ساوه,4846,3929556,2.15147E+11,53074,54315,55727,"2,653.00",5.00,54751,"1,677.00",3.16,52100,55727
ثپرديس,سرمايه گذاري مسكن پرديس,4833,33194822,3.64959E+11,11477,10904,11140,-337.00,-2.94,10994,-483.00,-4.21,10904,11450
خنصير,مهندسي‌نصيرماشين‌,4830,5023195,4.38104E+11,90980,86440,86440,"-4,540.00",-4.99,87220,"-3,760.00",-4.13,86440,94980
وپويا,سرمايه گذاري پويا,4816,4955690,31141555960,5985,6284,6284,299.00,5.00,6156,171.00,2.86,6284,6284
حآسا,آسيا سير ارس,4750,13609223,5.96395E+11,45839,43548,43548,"-2,291.00",-5.00,43823,"-2,016.00",-4.40,43548,45680
چكاپا,گروه صنايع كاغذ پارس,4683,61638422,3.2815E+11,5170,4920,5420,250.00,4.84,5320,150.00,2.90,4920,5420
دماوند,توليد نيروي برق دماوند,4681,6469720,3.46337E+11,53269,50606,54810,"1,541.00",2.89,53532,263.00,0.49,50606,55100
فلامي,لاميران‌,4636,5823484,2.90674E+11,49000,51440,48850,-150.00,-0.31,49910,910.00,1.86,48100,51450
تليسه,دامداري تليسه نمونه,4636,42862656,1.9188E+11,4414,4194,4600,186.00,4.21,4477,63.00,1.43,4194,4621
غنوش,نوش‌ مازندران‌,4622,11570871,6.78146E+11,56420,58700,58600,"2,180.00",3.86,58610,"2,190.00",3.88,55400,59240
وملي,گروه‌ صنعتي‌ ملي‌ (هلدينگ‌,4592,2374150,4.25262E+11,175090,167230,183840,"8,750.00",5.00,179120,"4,030.00",2.30,167230,183840
بايكا,كارخانجات كابلسازي ‌ايران‌,4583,6836620,3.116E+11,46229,48540,43918,"-2,311.00",-5.00,45578,-651.00,-1.41,43918,48540
كسعدي,كاشي‌ سعدي‌,4564,13285033,2.51969E+11,19380,18420,18900,-480.00,-2.48,18970,-410.00,-2.12,18420,19940
زشگزا,شير و گوشت زاگرس شهركرد,4475,23825953,2.20373E+11,9605,9125,9240,-365.00,-3.80,9249,-356.00,-3.71,9125,10000
كاذر,فرآورده‌هاي‌نسوزآذر,4426,11606753,4.21441E+11,37820,35930,35930,"-1,890.00",-5.00,36310,"-1,510.00",-3.99,35930,37910
گشان,توسعه بين المللي پديده شانديز,4421,12477696,5.32362E+11,44420,42644,42644,"-1,776.00",-4.00,42665,"-1,755.00",-3.95,42644,43450
خموتور,موتورسازان‌تراكتورسازي‌ايران‌,4309,23332808,3.94215E+11,17500,16630,16630,-870.00,-4.97,16900,-600.00,-3.43,16630,18000
زنگان,صنعت روي زنگان,4288,3614601,4.35388E+11,125025,118774,118774,"-6,251.00",-5.00,120453,"-4,572.00",-3.66,118774,128000
زدشت,كشت و صنعت دشت خرم دره,4248,7547584,2.56113E+11,34506,32781,33780,-726.00,-2.10,33933,-573.00,-1.66,32781,35999
غصينو,صنعتي مينو,4245,4825683,3.78721E+11,75868,79650,79661,"3,793.00",5.00,78480,"2,612.00",3.44,73000,79661
سبزوا,سيمان لار سبزوار,4235,42051941,1.64324E+11,3808,3705,3998,190.00,4.99,3908,100.00,2.63,3621,3998
بالاس,مهندسي ساختمان تاسيسات راه آهن,4165,4726774,2.55089E+11,54453,52300,55040,587.00,1.08,53967,-486.00,-0.89,51731,56990
زبينا,كشاورزي و دامپروري بينالود,4145,7643765,2.64551E+11,36060,34257,34290,"-1,770.00",-4.91,34610,"-1,450.00",-4.02,34257,36700
سفار,سيمان‌فارس‌,4107,2621289,3.49341E+11,131090,125000,137640,"6,550.00",5.00,133270,"2,180.00",1.66,124600,137640
ولانا,شركت ليزينگ آريا دانا,4086,6446904,2.20456E+11,34101,34898,33330,-771.00,-2.26,34196,95.00,0.28,32700,35700
فولاد,فولاد مباركه اصفهان,4029,36586710,3.95412E+11,10300,10800,10810,510.00,4.95,10810,510.00,4.95,10500,10810
وبصادر,بانك صادرات ايران,3979,111731468,2.81972E+11,2410,2500,2530,120.00,4.98,2520,110.00,4.56,2460,2530
ثاصفا,شركت‌ ساختمان‌ اصفهان‌,3967,12339741,3.2441E+11,26351,25561,26000,-351.00,-1.33,26290,-61.00,-0.23,25561,27141
ساراب,سيمان‌ داراب‌,3906,17270817,2.82148E+11,16320,15510,16650,330.00,2.02,16340,20.00,0.12,15510,17050
خودكفا,اقتصادي و خودكفايي آزادگان,3884,15909027,4.29546E+11,27743,26911,26911,-832.00,-3.00,27000,-743.00,-2.68,26911,27731
خفنر,فنرسازي‌خاور,3864,15016120,3.20452E+11,22120,21020,21710,-410.00,-1.85,21340,-780.00,-3.53,21020,22600
فنوال,نورد آلومينيوم‌,3828,13584940,3.73662E+11,28500,28690,27080,"-1,420.00",-4.98,27510,-990.00,-3.47,27080,29770
خكرمان,گروه اقتصادي كرمان خودرو,3804,48623542,2.13943E+11,4466,4333,4377,-89.00,-1.99,4400,-66.00,-1.48,4333,4512
ثفارس,عمران‌وتوسعه‌فارس‌,3735,28264103,3.66042E+11,12610,12000,13240,630.00,5.00,12950,340.00,2.70,12000,13240
كوثر,بيمه كوثر,3733,22338283,3.58654E+11,16202,15830,15780,-422.00,-2.60,16056,-146.00,-0.90,15410,16800
تكمبا,كمباين‌ سازي‌ ايران‌,3717,37928536,3.32994E+11,9160,8710,8880,-280.00,-3.06,8780,-380.00,-4.15,8710,9160
زمگسا,كشاورزي‌ ودامپروي‌ مگسال‌,3652,8062669,2.51461E+11,31490,29920,31950,460.00,1.46,31190,-300.00,-0.95,29920,32340
وتوس,توسعه‌شهري‌توس‌گستر,3585,14225282,2.5751E+11,18870,17930,17930,-940.00,-4.98,18100,-770.00,-4.08,17930,18860
بكاب,صنايع‌جوشكاب‌يزد,3545,756979,2.96972E+11,409870,389380,389380,"-20,490.00",-5.00,392310,"-17,560.00",-4.28,389380,422750
زكوثر,سرمايه گذاري كشاورزي كوثر,3510,7727099,1.70424E+11,21330,20300,22390,"1,060.00",4.97,22060,730.00,3.42,20300,22390
كپارس,كاشي‌ پارس‌,3493,1477060,2.21407E+11,149490,150000,152000,"2,510.00",1.68,149900,410.00,0.27,143500,156000
شگويا,پتروشيمي تندگويان,3468,16811507,1.37881E+11,7834,7830,8225,391.00,4.99,8202,368.00,4.70,7830,8225
فرابورس,فرابورس ايران,3452,11153200,3.8082E+11,33124,31600,34780,"1,656.00",5.00,34144,"1,020.00",3.08,31600,34780
كترام,توليدي‌ كاشي‌ تكسرام‌,3403,5240815,2.36555E+11,44150,45650,44200,50.00,0.11,45140,990.00,2.24,43850,46350
شبندر,پالايش نفت بندرعباس,3394,14886951,3.00267E+11,19290,19410,20250,960.00,4.98,20170,880.00,4.56,19410,20250
فاذر,صنايع‌ آذرآب‌,3352,12323175,3.07637E+11,23830,25020,25020,"1,190.00",4.99,24960,"1,130.00",4.74,24010,25020
غگيلا,شيرپاستوريزه پگاه گيلان,3286,47226,1086386904,21909,23004,23004,"1,095.00",5.00,21932,23.00,0.10,23004,23004
دزهراوي,داروسازي‌زهراوي‌,3273,19947399,1.65472E+11,8150,7750,8550,400.00,4.91,8300,150.00,1.84,7750,8550
وگردش,بانك گردشگري,3260,16319876,3.04027E+11,19285,18707,18430,-855.00,-4.43,18629,-656.00,-3.40,18321,19980
غمارگ,مارگارين‌,3233,7487315,2.4227E+11,32890,32000,31520,"-1,370.00",-4.17,32360,-530.00,-1.61,31250,34500
فوكا,فولاد كاويان,3121,26177420,3.40193E+11,12699,12400,13079,380.00,2.99,12996,297.00,2.34,12400,13079
وبملت,بانك ملت,3110,107440798,4.06887E+11,3620,3700,3800,180.00,4.97,3790,170.00,4.70,3680,3800
سكرد,سيمان كردستان,3090,16974682,1.70296E+11,10260,9750,9850,-410.00,-4.00,10030,-230.00,-2.24,9750,10600
ثغرب,شركت سرمايه گذاري مسكن شمالغرب,2993,23404911,1.62082E+11,6939,6593,7100,161.00,2.32,6925,-14.00,-0.20,6593,7180
ثنور,سرمايه گذاري كوه نور,2955,29351676,3.58772E+11,12771,12133,12133,-638.00,-5.00,12223,-548.00,-4.29,12133,13154
امين يكم,صندوق درآمد ثابت امين يكم فردا,2946,105661249,1.07648E+12,10183,10185,10189,6.00,0.06,10188,5.00,0.05,10183,10258
قنيشا,قند  نيشابور,2853,3159987,1.87777E+11,61960,58870,59460,"-2,500.00",-4.03,59420,"-2,540.00",-4.10,58870,64000
ولصنم,ليزينگ‌صنعت‌ومعدن‌,2835,19886192,2.11927E+11,11120,10570,10660,-460.00,-4.14,10660,-460.00,-4.14,10570,11400
سصفها,سيمان‌اصفهان‌,2823,645119,2.42677E+11,379020,360070,370030,"-8,990.00",-2.37,376170,"-2,850.00",-0.75,360070,395000
اپرداز,آتيه داده پرداز,2811,2915200,67462339371,22365,22365,23478,"1,113.00",4.98,23142,777.00,3.47,22365,23483
تاپكيش,تجارت الكترونيك پارسيان كيش,2803,7933515,1.70813E+11,22300,21185,21300,"-1,000.00",-4.48,21531,-769.00,-3.45,21185,22746
بشهاب,لامپ‌  پارس‌ شهاب‌,2780,1931056,2.29365E+11,123440,119020,117270,"-6,170.00",-5.00,118780,"-4,660.00",-3.78,117270,128000
شپترو,پتروشيمي آبادان,2774,34549031,1.57363E+11,4625,4487,4520,-105.00,-2.27,4555,-70.00,-1.51,4487,4720
ثباغ,شهر سازي و خانه سازي باغميشه,2770,11778571,1.87579E+11,16531,15705,16280,-251.00,-1.52,15925,-606.00,-3.67,15705,16520
صبا,سرمايه گذاري صبا تامين,2758,17398477,1.33874E+11,7351,7360,7718,367.00,4.99,7695,344.00,4.68,7351,7718
حسير,ريل سير كوثر,2720,11549155,2.09561E+11,18470,17547,18398,-72.00,-0.39,18145,-325.00,-1.76,17547,19393
وكارح,ح . بانك‌ كارآفرين‌,2717,117726968,1.69285E+11,1320,1400,1450,130.00,9.85,1440,120.00,9.09,1300,1450
وبازار,صندوق س شاخصي بازارآشنا,2699,38620267,3.86203E+11,10000,10000,10000,0,0,10000,0,0,10000,10000
انرژي3,سايراشخاص بورس انرژي,2684,1145454,3.41211E+11,287890,280000,302280,"14,390.00",5.00,297880,"9,990.00",3.47,280000,302280
غبهنوش,بهنوش‌ ايران‌,2683,3182393,2.31201E+11,70320,67020,73830,"3,510.00",4.99,72650,"2,330.00",3.31,67020,73830
وايران,ليزينگ ايرانيان,2665,18066338,2.10729E+11,12180,11580,11580,-600.00,-4.93,11660,-520.00,-4.27,11580,12140
دانا,بيمه دانا,2658,27317131,1.76021E+11,6260,6120,6570,310.00,4.95,6440,180.00,2.88,6000,6570
كالا,بورس كالاي ايران,2644,6732443,2.2304E+11,31900,30750,33490,"1,590.00",4.98,33130,"1,230.00",3.86,30750,33490
وپاسار,بانك  پاسارگاد,2624,22157482,2.64835E+11,11480,11490,12020,540.00,4.70,11950,470.00,4.09,11250,12020
شيران,س. صنايع‌شيميايي‌ايران,2608,8630593,2.43695E+11,27080,27080,28430,"1,350.00",4.99,28240,"1,160.00",4.28,27080,28430
چكاوهح,ح . صنايع‌كاغذسازي‌كاوه‌,2603,21436857,2.14573E+11,10800,10200,9720,"-1,080.00",-10.00,10010,-790.00,-7.31,9720,10800
سفارس,سيمان فارس و خوزستان,2602,20068663,3.82953E+11,18240,18200,19150,910.00,4.99,19080,840.00,4.61,18200,19150
سشرق,سيمان‌ شرق‌,2565,18854504,1.38515E+11,7220,7170,7400,180.00,2.49,7350,130.00,1.80,7050,7540
قشير,قند شيروان قوچان و بجنورد,2557,6745016,1.66548E+11,25545,24268,24800,-745.00,-2.92,24692,-853.00,-3.34,24268,26300
قصفها,قنداصفهان‌,2550,1055718,1.75315E+11,166440,160000,167900,"1,460.00",0.88,166060,-380.00,-0.23,158350,173950
ودي,بيمه  دي,2532,10878273,2.57457E+11,23706,22521,24085,379.00,1.60,23667,-39.00,-0.16,22521,24700
دبالك,مواد اوليه دارويي البرز بالك,2513,7945590,1.62344E+11,20616,19586,20440,-176.00,-0.85,20432,-184.00,-0.89,19586,21300
تسه9910,امتياز تسهيلات مسكن دي99,2502,65245,40801707476,607217,637577,615000,"7,783.00",1.28,625361,"18,144.00",2.99,578009,637577
چكاوه,صنايع‌كاغذسازي‌كاوه‌,2482,11264681,1.58692E+11,14650,13920,13920,-730.00,-4.98,14090,-560.00,-3.82,13920,14700
ميهن,بيمه ميهن,2481,29989092,1.43362E+11,4762,4524,4904,142.00,2.98,4780,18.00,0.38,4524,5000
بنيرو,نيروترانس‌,2477,7382544,1.26397E+11,17600,16720,16720,-880.00,-5.00,17120,-480.00,-2.73,16720,18350
ختور,رادياتور ايران‌,2450,5441020,1.27874E+11,22840,21700,23980,"1,140.00",4.99,23500,660.00,2.89,21700,23980
شدوص,دوده‌ صنعتي‌ پارس‌,2444,8077178,2.34962E+11,28330,26930,29740,"1,410.00",4.98,29090,760.00,2.68,26930,29740
قشكر,شكرشاهرود,2442,41809661,1.66014E+11,3880,3690,4070,190.00,4.90,3970,90.00,2.32,3690,4070
خمحركه,نيرو محركه‌,2439,23353806,1.1556E+11,4750,4620,4980,230.00,4.84,4950,200.00,4.21,4620,4980
مرقام,ايران‌ارقام‌,2393,7330171,1.31759E+11,18530,17610,17890,-640.00,-3.45,17970,-560.00,-3.02,17610,19200
ثزاگرس,سرمايه گذاري توسعه عمران زاگرس,2387,3342941,2.13233E+11,61872,64350,64965,"3,093.00",5.00,63786,"1,914.00",3.09,58791,64965
فجر,فولاد اميركبيركاشان,2386,10600733,6.81517E+11,61930,59600,65020,"3,090.00",4.99,64290,"2,360.00",3.81,59600,65020
خچرخش,چرخشگر,2380,8032183,1.35462E+11,17420,16550,16550,-870.00,-4.99,16860,-560.00,-3.21,16550,18000
زپارس,ملي كشت و صنعت و دامپروري پارس,2377,2445456,3.90907E+11,157250,150000,165110,"7,860.00",5.00,159850,"2,600.00",1.65,149390,165110
پلاسك,پلاسكوكار,2360,15166010,1.24314E+11,8430,8010,8170,-260.00,-3.08,8200,-230.00,-2.73,8010,8690
خشرق,الكتريك‌ خودرو شرق‌,2354,10594518,1.69405E+11,16230,15420,16340,110.00,0.68,15990,-240.00,-1.48,15420,16690
غسالم,سالمين‌,2330,27279878,1.19951E+11,4210,4300,4420,210.00,4.99,4400,190.00,4.51,4160,4420
خپارس,پارس‌ خودرو,2325,37997424,2.20805E+11,5570,5570,5840,270.00,4.85,5810,240.00,4.31,5570,5840
تاصيكو,سرمايه گذاري صدرتامين,2286,40063319,4.27833E+11,10990,10570,10610,-380.00,-3.46,10680,-310.00,-2.82,10320,10980
ومعلم,بيمه معلم,2258,22443607,1.05639E+11,4628,4397,4740,112.00,2.42,4707,79.00,1.71,4397,4859
بميلا,توسعه بازرگاني آهن وفولادميلاد,2233,9366673,1.97465E+11,21683,20599,20930,-753.00,-3.47,21082,-601.00,-2.77,20599,22330
خاور,ايران خودرو ديزل,2210,27104324,1.83209E+11,6642,6443,6841,199.00,3.00,6759,117.00,1.76,6443,6841
فاما,صنعتي‌ آما,2197,5284032,1.18046E+11,22290,22990,22190,-100.00,-0.45,22340,50.00,0.22,21180,22990
فيروزه,صندوق شاخص30 شركت فيروزه- سهام,2179,2824902,4.09657E+11,132780,135000,146050,"13,270.00",9.99,145020,"12,240.00",9.22,135000,146050
بجهرم,توسعه مولد نيروگاهي جهرم,2176,23179118,66636895749,2756,2717,2893,137.00,4.97,2875,119.00,4.32,2700,2893
آريان,سرمايه گذاري پارس آريان,2170,26609504,3.25169E+11,12649,12017,12420,-229.00,-1.81,12220,-429.00,-3.39,12017,12814
اعتماد,صندوق س.اعتماد آفرين پارسيان-د,2153,57448530,1.9956E+12,34720,34735,34739,19.00,0.05,34737,17.00,0.05,34735,34742
سامان,بانك سامان,2151,16212146,1.53129E+11,9717,9232,9380,-337.00,-3.47,9445,-272.00,-2.80,9232,10000
سقاين,سيمان‌ قائن‌,2146,2663019,2.08728E+11,77400,73530,81270,"3,870.00",5.00,78380,980.00,1.27,73530,81270
كسرا,سراميك‌هاي‌صنعتي‌اردكان‌,2138,8429367,1.87808E+11,21990,20900,22350,360.00,1.64,22280,290.00,1.32,20900,23000
دتوليد,داروسازي توليد دارو,2112,3860302,1.05368E+11,26926,25580,27350,424.00,1.57,27295,369.00,1.37,25580,28100
غپآذر,شير پگاه آذربايجان شرقي,2105,3106228,1.87947E+11,60736,57700,62100,"1,364.00",2.25,60507,-229.00,-0.38,57700,63750
ثشرق,سرمايه گذاري مسكن شمال شرق,2096,24580179,1.30252E+11,5320,5060,5380,60.00,1.13,5300,-20.00,-0.38,5060,5540
وشهر,بانك شهر,2050,32028425,1.91868E+11,5886,5850,6121,235.00,3.99,5991,105.00,1.78,5651,6121
افرا,افرانت,2027,3274442,1.04198E+11,32627,30996,31460,"-1,167.00",-3.58,31822,-805.00,-2.47,30996,33590
قثابت,قند ثابت‌ خراسان‌,2018,5058987,3.20834E+11,66490,63170,63170,"-3,320.00",-4.99,63420,"-3,070.00",-4.62,63170,65060
كماسه,تامين‌ ماسه‌ ريخته‌گري‌,2014,3240054,1.57416E+11,46520,47000,48840,"2,320.00",4.99,48580,"2,060.00",4.43,46590,48840
فارس,صنايع پتروشيمي خليج فارس,2012,18998865,1.6622E+11,8350,8450,8760,410.00,4.91,8750,400.00,4.79,8450,8760
دعبيد,لابراتوارداروسازي‌  دكترعبيدي‌,1989,3606540,88452168640,24460,23240,24200,-260.00,-1.06,24530,70.00,0.29,23240,25200
حتايد,تايدواترخاورميانه,1982,6483726,1.52994E+11,22940,21800,24040,"1,100.00",4.80,23600,660.00,2.88,21800,24080
ثامان,سامان‌ گستراصفهان‌,1953,7379348,1.76525E+11,24670,23440,23440,"-1,230.00",-4.99,23920,-750.00,-3.04,23440,25890
فاراك,ماشين‌ سازي‌ اراك‌,1938,24361108,1.24685E+11,4900,4810,5140,240.00,4.90,5120,220.00,4.49,4810,5140
وصنا,گروه‌صنايع‌بهشهرايران‌,1931,13276614,83741795620,6390,6080,6390,0,0,6310,-80.00,-1.25,6080,6690
غديس,پاكديس,1926,6704433,87513779471,13255,12920,12740,-515.00,-3.89,13053,-202.00,-1.52,12725,13600
وپست,پست بانك ايران,1913,9341534,1.60079E+11,16590,15990,17410,820.00,4.94,17140,550.00,3.32,15990,17410
فسرب,ملي‌ سرب‌وروي‌ ايران‌,1876,1597681,1.28821E+11,79790,75810,83770,"3,980.00",4.99,80630,840.00,1.05,75810,83770
خزاميا,زامياد,1872,26909341,2.18883E+11,7780,7900,8160,380.00,4.88,8130,350.00,4.50,7900,8160
سخاش,سيمان‌خاش‌,1870,1835822,2.8262E+11,146740,153850,154070,"7,330.00",5.00,153950,"7,210.00",4.91,148000,154070
ونيرو,سرمايه‌گذاري‌نيرو,1866,47267404,1.25245E+11,2540,2500,2660,120.00,4.72,2650,110.00,4.33,2480,2660
شرنگي,شيميايي رنگين,1857,1524888,2.7216E+11,170381,178900,178900,"8,519.00",5.00,178478,"8,097.00",4.75,173000,178900
لخزر,پارس‌ خزر,1851,742878,1.33979E+11,188290,194000,178880,"-9,410.00",-5.00,180350,"-7,940.00",-4.22,178880,194000
بكام,كارخانجات توليدي شهيد قندي,1849,26089866,91733575810,3380,3450,3540,160.00,4.73,3520,140.00,4.14,3380,3540
پارند,صندوق س. پارند پايدار سپهر,1822,76046017,8.51771E+11,11196,11202,11200,4.00,0.04,11201,5.00,0.04,11200,11205
سيمرغ,سيمرغ,1812,5574014,92519349570,16490,15700,16950,460.00,2.79,16600,110.00,0.67,15700,17200
وخارزم,سرمايه گذاري خوارزمي,1803,21128439,1.77991E+11,8050,8110,8450,400.00,4.97,8420,370.00,4.60,8110,8450
وارس,سرمايه گذاري ارس صبا,1791,6333089,1.08203E+11,17811,16930,16921,-890.00,-5.00,17085,-726.00,-4.08,16921,18200
دزهراويح,ح . ‌داروسازي‌زهراوي‌,1790,7895569,48275105890,5700,5800,6270,570.00,10.00,6110,410.00,7.19,5340,6270
غشان,شيرپاستوريزه‌پگاه‌خراسان‌,1788,17636075,1.01435E+11,5650,5370,5930,280.00,4.96,5750,100.00,1.77,5370,5930
چكارن,كارتن‌ ايران‌,1787,22823541,73237375090,3090,3100,3240,150.00,4.85,3210,120.00,3.88,3000,3240
غگلپا,شير پاستوريزه پگاه گلپايگان,1778,2109819,1.44585E+11,69170,68000,67200,"-1,970.00",-2.85,68529,-641.00,-0.93,66000,70500
آتيمس,صندوق س.آرمان آتيه درخشان مس-س,1768,1845960,3.28723E+11,166147,168390,178000,"11,853.00",7.13,178077,"11,930.00",7.18,168390,183412
غويتا,ويتانا,1766,5157477,1.0171E+11,20170,20950,19162,"-1,008.00",-5.00,19721,-449.00,-2.23,19162,20950
اخابر,مخابرات ايران,1761,21190762,2.16903E+11,9780,9870,10260,480.00,4.91,10240,460.00,4.70,9870,10260
حبندر,دريايي و کشتيراني خط دريابندر,1756,3983425,1.26622E+11,31376,30600,31430,54.00,0.17,31787,411.00,1.31,30435,32317
خمهر,مهركام‌پارس‌,1754,40954485,1.05764E+11,2590,2470,2610,20.00,0.77,2580,-10.00,-0.39,2470,2680
شبريز,پالايش نفت تبريز,1753,8794450,2.25747E+11,24700,24700,25930,"1,230.00",4.98,25670,970.00,3.93,24700,25930
واحيا,م .صنايع و معادن احياء سپاهان,1751,2462750,3.44337E+11,141016,136786,140000,"-1,016.00",-0.72,139818,"-1,198.00",-0.85,136786,145246
تابا,تابان نيرو سپاهان,1749,3650699,2.0885E+11,57095,55383,58807,"1,712.00",3.00,57208,113.00,0.20,55383,58807
لابسا,آبسال‌,1749,2240643,1.15062E+11,53060,50420,50410,"-2,650.00",-4.99,51350,"-1,710.00",-3.22,50410,54740
كاريس,صندوق س.سپهر كاريزما-س,1739,17171532,1.92732E+11,10243,10300,11500,"1,257.00",12.27,11224,981.00,9.58,10300,11649
كسعديح,ح . كاشي‌ سعدي‌,1733,5853718,84820767870,13620,13300,14540,920.00,6.75,14490,870.00,6.39,13300,14950
حپارسا,توسعه حمل و نقل ريلي پارسيان,1713,3721721,1.31909E+11,34970,33222,36718,"1,748.00",5.00,35443,473.00,1.35,33222,36718
فروي,ذوب روي اصفهان,1701,1226358,79066612382,61512,64000,64587,"3,075.00",5.00,64473,"2,961.00",4.81,63000,64587
تپولا,مهندسي مرآت پولاد,1693,2513769,91229201107,37310,36191,36191,"-1,119.00",-3.00,36292,"-1,018.00",-2.73,36191,37040
غاذر,كشت‌وصنعت‌پياذر,1684,1884296,1.0938E+11,55940,53170,58690,"2,750.00",4.92,58050,"2,110.00",3.77,53150,58730
شلرد,كود شيميايي اوره لردگان,1673,17270297,1.25875E+11,7049,6730,7401,352.00,4.99,7289,240.00,3.40,6730,7401
فزرين,زرين معدن آسيا,1670,10178474,2.37325E+11,22209,23319,23319,"1,110.00",5.00,23316,"1,107.00",4.98,22800,23319
فافزا,فولاد افزا سپاهان,1668,1812917,1.0282E+11,58899,55955,55955,"-2,944.00",-5.00,56715,"-2,184.00",-3.71,55955,60490
شكربن,كربن‌ ايران‌,1663,1420744,1.46632E+11,100230,102290,105240,"5,010.00",5.00,103210,"2,980.00",2.97,98000,105240
كلوند,كاشي‌ الوند,1660,4242569,2.13528E+11,47940,50330,50330,"2,390.00",4.99,50330,"2,390.00",4.99,50330,50330
وغدير,سرمايه‌گذاري‌غدير(هلدينگ‌,1651,15415042,1.69391E+11,10490,10600,11010,520.00,4.96,10990,500.00,4.77,10600,11010
خزر,فنرسازي‌زر,1622,3797470,1.84329E+11,46230,48540,48540,"2,310.00",5.00,48540,"2,310.00",5.00,48540,48540
تپمپي,پمپ‌ سازي‌ ايران‌,1616,3100178,60345725830,19220,18400,19950,730.00,3.80,19470,250.00,1.30,18400,20100
سكرما,سيمان‌ كرمان‌,1583,5380524,98501540870,17450,18320,18320,870.00,4.99,18310,860.00,4.93,17900,18320
ستران,سيمان‌ تهران‌,1582,5396921,1.46077E+11,25870,25810,27160,"1,290.00",4.99,27070,"1,200.00",4.64,25810,27160
واميد,گروه مديريت سرمايه گذاري اميد,1568,2943543,1.09982E+11,38290,38290,36990,"-1,300.00",-3.40,37420,-870.00,-2.27,36550,38880
شتوكا,توكا رنگ فولاد سپاهان,1564,3211616,1.76825E+11,57891,54997,54997,"-2,894.00",-5.00,55058,"-2,833.00",-4.89,54997,55970
فنفت,صنايع تجهيزات نفت,1555,8714657,2.51513E+11,29906,28411,29897,-9.00,-0.03,28861,"-1,045.00",-3.49,28411,29990
فلوله,لوله‌وماشين‌سازي‌ايران‌,1552,7290214,1.59111E+11,20980,21400,22020,"1,040.00",4.96,21830,850.00,4.05,20010,22020
مداران,داده‌پردازي‌ايران‌,1529,3135414,76251201570,24490,23520,23910,-580.00,-2.37,24320,-170.00,-0.69,23520,25560
شفارا,پتروشيمي فارابي,1529,17995908,80690711017,4586,4600,4479,-107.00,-2.33,4484,-102.00,-2.22,4449,4650
وساپا,سرمايه‌گذاري‌ سايپا,1516,30777073,1.83206E+11,5700,5620,5980,280.00,4.91,5950,250.00,4.39,5620,5980
البرز,بيمه البرز,1514,26704060,1.0429E+11,3750,3600,3930,180.00,4.80,3910,160.00,4.27,3600,3930
ولشرق,ليزينگ ايران و شرق,1512,11147065,86408648841,7529,7155,7905,376.00,4.99,7752,223.00,2.96,7155,7905
خاهن,آهنگري‌ تراكتورسازي‌ ايران‌,1510,2102303,81439912240,38570,39730,38700,130.00,0.34,38740,170.00,0.44,38200,39730
زفكا,كشت و دامداري فكا,1502,5397805,63960146433,12136,11591,11566,-570.00,-4.70,11849,-287.00,-2.36,11540,12500
ثاباد,توريستي ورفاهي آبادگران ايران,1494,2944151,1.49106E+11,48790,48000,51220,"2,430.00",4.98,50640,"1,850.00",3.79,47030,51220
سرود,سيمان‌شاهرود,1490,4453596,83430550850,18560,17640,19000,440.00,2.37,18730,170.00,0.92,17640,19320
ددام,داروسازي زاگرس فارمد پارس,1481,8834381,1.87174E+11,22030,20950,20930,"-1,100.00",-4.99,21190,-840.00,-3.81,20930,22500
آپ,آسان پرداخت پرشين,1481,5292801,87658050490,16240,15500,16850,610.00,3.76,16560,320.00,1.97,15500,17000
ورنا,سرمايه‌گذاري‌ رنا(هلدينگ‌,1478,32922582,1.84875E+11,5370,5270,5630,260.00,4.84,5620,250.00,4.66,5260,5630
ولساپا,ليزينگ رايان‌ سايپا,1477,31923446,1.18246E+11,3540,3690,3710,170.00,4.80,3700,160.00,4.52,3590,3710
فباهنر,مس‌ شهيدباهنر,1477,2689973,1.37075E+11,48640,46400,51070,"2,430.00",5.00,50960,"2,320.00",4.77,46400,51070
پكوير,كوير تاير,1465,8400089,1.19666E+11,13660,14200,14340,680.00,4.98,14250,590.00,4.32,13870,14340
نوري,پتروشيمي نوري,1460,2671951,1.39084E+11,50010,50030,52510,"2,500.00",5.00,52050,"2,040.00",4.08,50030,52510
سفانو,سيمان فارس نو,1447,3243148,1.25029E+11,38140,36280,38190,50.00,0.13,38550,410.00,1.07,36240,39980
نوين,بيمه نوين,1443,15391806,94677181937,5899,5800,6193,294.00,4.98,6151,252.00,4.27,5800,6193
پرداخت,به پرداخت ملت,1441,6071891,2.29291E+11,39660,37680,37680,"-1,980.00",-4.99,37760,"-1,900.00",-4.79,37680,38800
وآوا,سرمايه گذاري آوا نوين,1424,7506153,56007537874,7218,7129,7578,360.00,4.99,7462,244.00,3.38,6900,7578
قرن,پديده شيمي قرن,1421,1172922,73128381120,59520,60000,62490,"2,970.00",4.99,62350,"2,830.00",4.75,60000,62490
كي بي سي,شركت كي بي سي,1421,2899983,82884519299,29170,27800,28498,-672.00,-2.30,28581,-589.00,-2.02,27800,30299
زگلدشت,كشت و دام گلدشت نمونه اصفهان,1418,2539520,1.29094E+11,53371,50703,50703,"-2,668.00",-5.00,50834,"-2,537.00",-4.75,50703,52030
غشاذر,پگاه‌آذربايجان‌غربي‌,1417,5923103,1.24647E+11,21180,21000,21500,320.00,1.51,21040,-140.00,-0.66,20160,21790
شصدف,صنعتي دوده فام,1400,34490,997450800,27543,28920,28920,"1,377.00",5.00,27569,26.00,0.09,28920,28920
تاپيكو,س. نفت و گاز و پتروشيمي تأمين,1397,15462533,1.74582E+11,10770,10900,11300,530.00,4.92,11290,520.00,4.83,10900,11300
چافست,افست‌,1394,4405113,69926567960,16470,15650,15850,-620.00,-3.76,15870,-600.00,-3.64,15650,17000
دفارا,داروسازي‌ فارابي‌,1394,2060156,1.23394E+11,58440,55520,61360,"2,920.00",5.00,59900,"1,460.00",2.50,55520,61360
بالبر,كابل‌ البرز,1390,2758250,1.16576E+11,44050,41850,41850,"-2,200.00",-4.99,42260,"-1,790.00",-4.06,41850,43700
خكار,ايركا پارت صنعت,1370,5409390,1.00203E+11,19180,18230,18230,-950.00,-4.95,18520,-660.00,-3.44,18230,19480
ميدكو,هلدينگ صنايع  معدني خاورميانه,1355,3872732,1.19126E+11,30687,29153,31370,683.00,2.23,30760,73.00,0.24,29153,31700
ختوقا,قطعات‌ اتومبيل‌ ايران‌,1345,22252554,58346638110,2520,2500,2640,120.00,4.76,2620,100.00,3.97,2500,2640
قچار,فراوردههاي غذايي وقند چهارمحال,1344,1849380,1.7046E+11,88900,88900,93345,"4,445.00",5.00,92172,"3,272.00",3.68,87800,93345
وپارس,بانك‌پارسيان‌,1323,109388404,3.21602E+11,2800,2940,2940,140.00,5.00,2940,140.00,5.00,2940,2940
مبين,مبين انرژي خليج فارس,1319,17828472,2.54791E+11,13670,13670,14350,680.00,4.97,14290,620.00,4.54,13670,14350
خوساز,محورسازان‌ايران‌خودرو,1318,9509631,81381040870,8270,7860,8680,410.00,4.96,8560,290.00,3.51,7860,8680
فولاي,صنايع فولاد آلياژي يزد,1312,5153341,2.6228E+11,48511,50936,50936,"2,425.00",5.00,50895,"2,384.00",4.91,49322,50936
وبيمه,سرمايه‌ گذاري‌ صنعت‌ بيمه‌,1302,19698873,53697013110,2630,2500,2760,130.00,4.94,2730,100.00,3.80,2500,2760
كبافق,معادن‌ بافق‌,1297,1725664,89625317230,49640,50000,52120,"2,480.00",5.00,51940,"2,300.00",4.63,50000,52120
كيان,صندوق س. با درآمد ثابت كيان,1291,26338045,7.13309E+11,27071,27083,27085,14.00,0.05,27083,12.00,0.04,26850,27089
تسه9908,امتياز تسهيلات مسكن آبان99,1286,34257,21303778948,620756,620756,629000,"8,244.00",1.33,621881,"1,125.00",0.18,590000,651793
لسرما,سرما آفرين‌,1279,2804058,71801405340,25990,25500,25260,-730.00,-2.81,25610,-380.00,-1.46,24900,26870
كاردان,صندوق س تجارت شاخصي كاردان,1276,1709707,2.73046E+11,145460,150500,160000,"14,540.00",10.00,159700,"14,240.00",9.79,150500,160000
اطلس,صندوق س.توسعه اندوخته آينده-س,1270,493876,99481995396,189236,190350,205000,"15,764.00",8.33,201431,"12,195.00",6.44,190350,207000
تسه9909,امتياز تسهيلات مسكن آذر99,1269,40921,25422540097,609049,609049,630000,"20,951.00",3.44,621259,"12,210.00",2.00,578597,639501
رانفور,خدمات‌انفورماتيك‌,1249,3613210,95986671250,25570,26000,26840,"1,270.00",4.97,26570,"1,000.00",3.91,25000,26840
وملل,اعتباري ملل,1247,8082524,1.19968E+11,14532,14000,15070,538.00,3.70,14843,311.00,2.14,14000,15180
ملت,بيمه ملت,1247,8582853,1.31817E+11,14720,15190,15450,730.00,4.96,15360,640.00,4.35,14800,15450
آساس,صندوق س.آسمان آرماني سهام-س,1246,1036404,1.72362E+11,155803,159000,168500,"12,697.00",8.15,166308,"10,505.00",6.74,158260,168990
پاكشو,گروه صنعتي پاكشو,1238,1052963,85196561390,78000,79700,81000,"3,000.00",3.85,80490,"2,490.00",3.19,79500,81900
غمهرا,توليدي‌مهرام‌,1230,866183,97849203690,108770,113600,114200,"5,430.00",4.99,112970,"4,200.00",3.86,109880,114200
فالوم,آلومتك‌,1222,4231601,1.69375E+11,39073,37901,40245,"1,172.00",3.00,40026,953.00,2.44,37901,40245
ومهان,گروه توسعه مالي مهر آيندگان,1218,8099835,1.02047E+11,12010,12011,12610,600.00,5.00,12599,589.00,4.90,12011,12610
افق,فروشگاههاي زنجيره اي افق كوروش,1216,1448828,1.16682E+11,77950,80000,81000,"3,050.00",3.91,80540,"2,590.00",3.32,79000,81040
ريشمك,توليد و صادرات ريشمك,1211,1803610,1.03606E+11,55331,52600,58097,"2,766.00",5.00,57444,"2,113.00",3.82,52600,58097
كحافظ,كاشي‌ وسراميك‌ حافظ‌,1166,4342001,57215810080,12730,13100,13360,630.00,4.95,13180,450.00,3.53,12710,13360
پسهند,صنايع‌ لاستيكي‌  سهند,1165,2156506,87821264660,40670,41500,40690,20.00,0.05,40720,50.00,0.12,39510,42640
رنيك,جنرال مكانيك,1162,2433679,51085397760,20341,20300,21358,"1,017.00",5.00,20991,650.00,3.20,20120,21358
كتوكاح,ح.توليدي وخدمات صنايع نسوزتوكا,1155,3181428,80141762269,24208,23920,25418,"1,210.00",5.00,25190,982.00,4.06,23920,25418
فايرا,آلومينيوم‌ايران‌,1155,7925032,1.89727E+11,22820,22030,23960,"1,140.00",5.00,23940,"1,120.00",4.91,22030,23960
فخوز,فولاد  خوزستان,1142,12337977,1.4978E+11,11600,11700,12180,580.00,5.00,12140,540.00,4.66,11700,12180
خريخت,صنايع‌ريخته‌گري‌ايران‌,1141,15511817,57809128930,3580,3580,3750,170.00,4.75,3730,150.00,4.19,3580,3750
حفاري,حفاري شمال,1138,13110975,1.40817E+11,10280,10470,10790,510.00,4.96,10740,460.00,4.47,10310,10790
كطبس,ذغال‌سنگ‌ نگين‌ ط‌بس‌,1137,1732963,1.31742E+11,74780,71600,77200,"2,420.00",3.24,76020,"1,240.00",1.66,71050,77840
سغرب,سيمان‌غرب‌,1134,2514465,68581607620,26030,27330,27330,"1,300.00",4.99,27270,"1,240.00",4.76,26300,27330
ثعمرا,عمران و توسعه شاهد,1133,8730911,1.09542E+11,12018,12000,12618,600.00,4.99,12546,528.00,4.39,12000,12618
وكار,بانك‌ كارآفرين‌,1132,27715267,73368424770,2550,2440,2670,120.00,4.71,2650,100.00,3.92,2440,2670
غويتاح,ح . ويتانا,1131,3823155,52428229883,14090,14540,13386,-704.00,-5.00,13713,-377.00,-2.68,13386,14650
ومعادن,توسعه‌معادن‌وفلزات‌,1124,11834198,1.23551E+11,9970,10020,10460,490.00,4.91,10440,470.00,4.71,10020,10460
خاذين,سايپاآذين‌,1118,18571437,85687054300,4410,4420,4630,220.00,4.99,4610,200.00,4.54,4360,4630
بكهنوج,توليد برق ماهتاب كهنوج,1113,33673453,60749758885,1723,1700,1809,86.00,4.99,1804,81.00,4.70,1700,1809
خلنت,لنت‌ ترمزايران‌,1109,560894,55751436910,102250,97140,98300,"-3,950.00",-3.86,99400,"-2,850.00",-2.79,97140,106980
دلقما,دارويي‌ لقمان‌,1107,2049765,45799554650,22320,21220,22150,-170.00,-0.76,22340,20.00,0.09,21220,23000
چدن,توليدي چدن سازان,1106,2669085,70463165060,25290,25300,26550,"1,260.00",4.98,26400,"1,110.00",4.39,25300,26550
غشهداب,كشت و صنعت شهداب ناب خراسان,1094,17792894,65661968154,3530,3533,3706,176.00,4.99,3690,160.00,4.53,3533,3706
سمازن,سيمان‌مازندران‌,1091,8017220,83296591770,10050,10000,10550,500.00,4.98,10390,340.00,3.38,9720,10550
ركيش,كارت اعتباري ايران كيش,1090,4298679,1.05482E+11,24040,24530,24800,760.00,3.16,24540,500.00,2.08,24040,25000
وسينا,بانك سينا,1086,25730436,91117330380,3400,3250,3570,170.00,5.00,3540,140.00,4.12,3250,3570
كگل,معدني و صنعتي گل گهر,1085,10327979,1.76124E+11,16250,16800,17060,810.00,4.98,17050,800.00,4.92,16560,17060
ثتوسا,س.توسعه و عمران استان اردبيل,1082,2266076,1.06669E+11,46804,48208,45400,"-1,404.00",-3.00,47072,268.00,0.57,45400,48208
خكاوه,سايپا ديزل,1080,15151549,66695146217,4297,4292,4425,128.00,2.98,4402,105.00,2.44,4292,4425
ولغدر,ليزينگ‌خودروغدير,1072,7111751,1.51427E+11,22340,21230,21230,"-1,110.00",-4.97,21290,"-1,050.00",-4.70,21230,21770
وثنو,سرمايه گذاري ساختماني نوين,1069,3572768,62197111921,16683,16000,17517,834.00,5.00,17409,726.00,4.35,16000,17517
غپاك,لبنيات‌ پاك‌,1049,8261044,1.2597E+11,14600,14000,15330,730.00,5.00,15250,650.00,4.45,14000,15330
ارزش,صندوق س ارزش آفرين بيدار-سهام,1033,12667260,1.26378E+11,9130,9480,10040,910.00,9.97,9980,850.00,9.31,9470,10040
ولملت,واسپاري ملت,1027,9447987,86215223740,9530,9060,9060,-470.00,-4.93,9130,-400.00,-4.20,9060,9490
ضسپا1102,اختيارخ خساپا-2000-1399/11/26,1026,45493,9124370000,107,116,230,123.00,114.95,201,94.00,87.85,109,233
وصنعت,سرمايه گذاري توسعه صنعت وتجارت,1017,9724903,62574334310,6150,6100,6450,300.00,4.88,6430,280.00,4.55,6100,6450
وخاور,بانك خاورميانه,1013,7426961,74272927470,9860,9950,9780,-80.00,-0.81,10000,140.00,1.42,9740,10280
پارس,پتروشيمي پارس,1011,925826,1.17377E+11,122560,123700,128680,"6,120.00",4.99,126780,"4,220.00",3.44,123700,128680
اميد,تامين سرمايه اميد,1011,8338989,66849247060,7720,7430,8100,380.00,4.92,8020,300.00,3.89,7430,8100
كساوه,صنايع‌ كاشي‌ و سراميك‌ سينا,1006,1408734,96481484320,71560,67990,67990,"-3,570.00",-4.99,68490,"-3,070.00",-4.29,67990,70910
سپاها,سيمان‌سپاهان‌,1005,5782663,52537187420,8670,8460,9100,430.00,4.96,9090,420.00,4.84,8460,9100
فپنتا,سپنتا,999,160233,65691721000,410600,410000,400000,"-10,600.00",-2.58,409980,-620.00,-0.15,398020,420000
خبهمن,گروه‌بهمن‌,996,4743107,95017228280,19120,19990,20070,950.00,4.97,20030,910.00,4.76,19500,20070
كشرق,صنعتي و معدني شمال شرق شاهرود,995,757704,72974283342,93110,89800,97765,"4,655.00",5.00,96310,"3,200.00",3.44,89800,97765
دكوثر,داروسازي‌ كوثر,993,2227278,43149929060,19120,18360,19560,440.00,2.30,19340,220.00,1.15,18360,19870
سمتاز,سيمان ممتازان كرمان,989,3395251,65208988851,19431,19660,19670,239.00,1.23,19206,-225.00,-1.16,18849,19950
زفكاح,ح . كشت و دامداري فكا,988,5628238,42004405572,7605,7300,7330,-275.00,-3.62,7463,-142.00,-1.87,7225,7890
وكادو,تكادو,986,5619092,1.28866E+11,23626,22918,22918,-708.00,-3.00,22934,-692.00,-2.93,22918,23300
لبوتان,گروه‌صنعتي‌بوتان‌,983,605115,39054462100,64330,61120,63500,-830.00,-1.29,64500,170.00,0.26,61120,67400
كگاز,شيشه‌ و گاز,971,2643308,46648625170,17530,16690,17620,90.00,0.51,17640,110.00,0.63,16690,18260
وبهمن,سرمايه‌گذاري‌بهمن‌,970,3204149,52323733920,16170,15370,16800,630.00,3.90,16330,160.00,0.99,15370,16900
وحكمت,بيمه حكمت صبا,967,10870266,46086786438,4125,4248,4248,123.00,2.98,4240,115.00,2.79,4002,4248
همراه,شركت ارتباطات سيار ايران,967,5122905,1.34668E+11,25060,25300,26310,"1,250.00",4.99,26290,"1,230.00",4.91,25300,26310
مدير,ص.س.مديريت ثروت ص.بازنشستگي-س,966,8056496,76597477098,8724,9300,9596,872.00,10.00,9508,784.00,8.99,8850,9596
بهپاك,صنعتي بهپاك,961,2466916,1.12533E+11,43518,45099,45693,"2,175.00",5.00,45617,"2,099.00",4.82,44310,45693
شاراك,پتروشيمي شازند,956,5281094,1.27878E+11,23100,24000,24250,"1,150.00",4.98,24210,"1,110.00",4.81,23190,24250
سخزر,سيمان‌ خزر,955,1695842,49287168830,29820,28600,28330,"-1,490.00",-5.00,29060,-760.00,-2.55,28330,31000
غشوكو,شوكو پارس,952,1177778,49542349157,44032,41831,42700,"-1,332.00",-3.03,42064,"-1,968.00",-4.47,41831,43809
كمنگنز,معادن‌منگنزايران‌,951,952804,87182542090,87910,86700,92300,"4,390.00",4.99,91500,"3,590.00",4.08,86700,92300
وتوشه,سرمايه‌ گذاري‌ پارس‌ توشه‌,943,2982194,67250343270,21910,20860,23000,"1,090.00",4.97,22550,640.00,2.92,20860,23000
ولتجار,واسپاري تجارت وسرمايه ايرانيان,931,7906453,62660735704,8313,7898,7898,-415.00,-4.99,7925,-388.00,-4.67,7898,8310
رمپنا,گروه مپنا (سهامي عام),929,9514641,1.5619E+11,15680,15680,16460,780.00,4.97,16420,740.00,4.72,15680,16460
زقيام,كشت و دام قيام اصفهان,923,3003016,92123659407,29320,30769,30786,"1,466.00",5.00,30677,"1,357.00",4.63,29790,30786
ونوين,بانك‌اقتصادنوين‌,920,25559831,97050976060,3620,3800,3800,180.00,4.97,3800,180.00,4.97,3680,3800
سخواف,سيمان مجد خواف,917,7019392,1.33891E+11,19648,19059,19059,-589.00,-3.00,19074,-574.00,-2.92,19059,19468
سجامح,ح.مجتمع سيمان غرب آسيا,905,9112365,30157923785,3395,3294,3294,-101.00,-2.97,3310,-85.00,-2.50,3294,3390
داوه,داروسازي آوه سينا,893,2488114,46832708157,19333,19217,18367,-966.00,-5.00,18842,-491.00,-2.54,18367,19850
دسانكو,داروسازي سبحان انكولوژي,891,2615564,41321376908,15681,14897,15950,269.00,1.72,15779,98.00,0.62,14897,16190
شجم,صنايع پتروشيمي تخت جمشيد,887,6512859,70553962822,11255,10693,11300,45.00,0.40,10833,-422.00,-3.75,10693,11300
فروس,فروسيليس‌ ايران‌,886,10521049,51953750400,4740,4570,4970,230.00,4.85,4940,200.00,4.22,4570,4970
شفن,پتروشيمي فناوران,866,1029333,2.96488E+11,274350,279990,288060,"13,710.00",5.00,288040,"13,690.00",4.99,279990,288060
سهرمز,سيمان‌هرمزگان‌,860,2327612,59781309110,26860,25520,25520,"-1,340.00",-4.99,25680,"-1,180.00",-4.39,25520,26450
ونيكي,سرمايه‌گذاري‌ ملي‌ايران‌,860,6520855,69257995480,10140,10150,10640,500.00,4.93,10590,450.00,4.44,10150,10640
ما,بيمه  ما,855,5757278,48763491080,8470,8110,8470,0,0,8470,0,0,8110,8730
تبرك,گروه كارخانجات صنعتي تبرك,855,5095198,78982063269,14791,15110,15530,739.00,5.00,15501,710.00,4.80,14900,15530
سشمال,سيمان‌ شمال‌,850,5683986,61245370830,10280,10790,10790,510.00,4.96,10780,500.00,4.86,10400,10790
بنو,بيمه تجارت نو,848,3382810,1.0928E+11,30799,32338,32338,"1,539.00",5.00,32304,"1,505.00",4.89,32000,32338
دكيمي,كيميدارو,842,1936003,48141593870,25280,24200,24600,-680.00,-2.69,24870,-410.00,-1.62,24030,26050
نطرين,عطرين نخ قم,836,5594904,66235396915,11333,11720,11899,566.00,4.99,11839,506.00,4.46,11350,11899
سيدكو,سرمايه گذاري توسعه صنايع سيمان,833,4385265,26247033600,5780,5650,6060,280.00,4.84,5890,110.00,1.90,5650,6060
كچاد,معدني‌وصنعتي‌چادرملو,832,7225512,1.38911E+11,18330,19000,19240,910.00,4.96,19230,900.00,4.91,18700,19240
وپترو,سرمايه‌گذاري صنايع پتروشيمي‌,831,4205545,62126281470,14160,13500,14860,700.00,4.94,14770,610.00,4.31,13500,14860
اعتلا,شركت سرمايه گذاري اعتلاء البرز,830,5070373,37243572357,7469,7096,7330,-139.00,-1.86,7373,-96.00,-1.29,7096,7700
وگستر,گسترش سرمايه گذاري ايرانيان,828,3448832,69194366658,19238,18310,20199,961.00,5.00,20063,825.00,4.29,18310,20199
كپرور,فرآوري زغال سنگ پروده طبس,828,938459,37331847294,39436,37600,39100,-336.00,-0.85,39698,262.00,0.66,37600,41000
كروي,توسعه‌ معادن‌ روي‌ ايران‌,820,3263360,86137711580,25200,24000,26460,"1,260.00",5.00,26400,"1,200.00",4.76,24000,26460
شكبير,پتروشيمي اميركبير,820,1413649,1.27108E+11,90456,87800,88272,"-2,184.00",-2.41,89915,-541.00,-0.60,87800,91496
بورس,بورس اوراق بهادار تهران,813,2141603,87799184780,39490,38020,41460,"1,970.00",4.99,41000,"1,510.00",3.82,38020,41460
خمحور,توليدمحورخودرو,806,1086886,61686418920,55020,56770,57770,"2,750.00",5.00,56760,"1,740.00",3.16,53010,57770
بفجر,فجر انرژي خليج فارس,805,3058781,71843713510,23230,23230,23440,210.00,0.90,23490,260.00,1.12,23020,24390
پرديس,سرمايه گذاري پرديس,803,5743362,37428315220,6280,6050,6590,310.00,4.94,6460,180.00,2.87,6050,6590
وسپهح,ح . سرمايه‌گذاري‌ سپه‌,795,3347167,16059266670,4390,4530,4830,440.00,10.02,4800,410.00,9.34,4530,4830
قپيرا,فرآورده‌هاي‌غدايي‌وقندپيرانشهر,788,1764785,1.80877E+11,107870,102480,102480,"-5,390.00",-5.00,102490,"-5,380.00",-4.99,102480,104910
وبشهر,توسعه‌ صنايع‌ بهشهر(هلدينگ,781,4581160,52968302200,11160,11120,11710,550.00,4.93,11560,400.00,3.58,11120,11710
رتاپ,تجارت الكترونيك  پارسيان,779,4011421,24616422830,5990,5990,6210,220.00,3.67,6060,70.00,1.17,5890,6260
چخزر,صنايع چوب خزر كاسپين,773,1183025,74185131700,66008,62708,62708,"-3,300.00",-5.00,62708,"-3,300.00",-5.00,62708,62708
دامين,داروسازي‌ امين‌,766,2723284,41305177910,15230,14470,15120,-110.00,-0.72,15180,-50.00,-0.33,14470,15650
حريل,ريل پردازسير,765,12978515,61977507512,4571,4520,4799,228.00,4.99,4775,204.00,4.46,4520,4799
وسنا,سرمايه گذاري نيروگاهي ايران,762,3693481,63711685761,17717,16832,17076,-641.00,-3.62,17250,-467.00,-2.64,16832,18410
كمينا,شيشه سازي مينا,762,2482408,69510379213,26991,26879,28340,"1,349.00",5.00,28001,"1,010.00",3.74,26011,28340
اتكاي,بيمه اتكايي ايرانيان,757,4758283,67253525487,14822,14081,14081,-741.00,-5.00,14134,-688.00,-4.64,14081,14593
فولاژ,فولاد آلياژي ايران,756,2840319,43690876850,14760,14760,15490,730.00,4.95,15200,440.00,2.98,14760,15490
تنوين,تامين سرمايه نوين,756,8980778,57289663270,6100,6100,6400,300.00,4.92,6380,280.00,4.59,6100,6400
شبهرن,نفت‌ بهران‌,753,1464396,85178124400,55500,55620,58270,"2,770.00",4.99,58170,"2,670.00",4.81,55620,58270
هجرت,پخش هجرت,750,1178000,31726111742,27385,26018,27090,-295.00,-1.08,27090,-295.00,-1.08,26018,28200
خفناور,مهندسي صنعتي روان فن آور,747,1738456,85753183098,48004,48400,49444,"1,440.00",3.00,49327,"1,323.00",2.76,48400,49444
كگهر,سنگ آهن گهرزمين,744,1009699,48371616779,46352,46320,48005,"1,653.00",3.57,46966,614.00,1.32,44200,48550
اتكام,شركت بيمه اتكايي امين,744,4874039,25926705779,5101,5100,5340,239.00,4.69,5210,109.00,2.14,5100,5356
وساخت,سرمايه‌ گذاري‌ ساختمان‌ايران‌,737,1688654,80149332200,45530,47570,47800,"2,270.00",4.99,47460,"1,930.00",4.24,46100,47800
وبانك,سرمايه گذاري گروه توسعه ملي,734,6383154,51108190000,7640,7660,8020,380.00,4.97,7850,210.00,2.75,7660,8020
واتي,سرمايه‌ گذاري‌ آتيه‌ دماوند,728,4971797,56673064290,11190,10650,11460,270.00,2.41,11400,210.00,1.88,10650,11640
فسپا,گروه‌صنعتي‌سپاهان‌,725,3289152,1.30231E+11,37720,37730,39600,"1,880.00",4.98,39590,"1,870.00",4.96,37730,39600
غبشهر,صنعتي‌ بهشهر,723,2045285,42395055550,20590,19650,20750,160.00,0.78,20710,120.00,0.58,19650,21410
ضخود2007,اختيارخ خودرو-3000-1400/02/08,716,30331,7722185000,219,250,252,33.00,15.07,255,36.00,16.44,248,279
دارو,كارخانجات‌داروپخش‌,713,651422,21982119640,34310,32600,33120,"-1,190.00",-3.47,34050,-260.00,-0.76,32600,35000
وآرين,شركت توسعه اقتصادي آرين,706,5457828,23631837311,4332,4203,4390,58.00,1.34,4330,-2.00,-0.05,4203,4439
بسويچ,پارس‌سويچ‌,703,736809,37734489700,49610,47130,52000,"2,390.00",4.82,50790,"1,180.00",2.38,47130,52090
كفرا,فراورده‌ هاي‌ نسوزايران‌,701,556938,26144902650,47540,45170,46630,-910.00,-1.91,47220,-320.00,-0.67,45170,49800
شپديس,پتروشيمي پرديس,688,2828859,2.6047E+11,87720,89010,92100,"4,380.00",4.99,92080,"4,360.00",4.97,89010,92100
بموتو,موتوژن‌,685,601174,32775802340,52650,50110,55090,"2,440.00",4.63,53890,"1,240.00",2.36,50110,55250
غمينو,شركت صنايع غذايي مينو شرق,679,3712402,48384967176,12429,13050,13050,621.00,5.00,13013,584.00,4.70,12010,13050
نيرو,نيرو سرمايه,676,987366,60920013242,61090,59258,62890,"1,800.00",2.95,61700,610.00,1.00,59258,62922
تيپيكو,سرمايه گذاري دارويي تامين,671,817695,36824705170,44760,45520,45000,240.00,0.54,44890,130.00,0.29,43440,46520
فخاس,فولاد خراسان,668,1017764,26428704260,25840,25180,25670,-170.00,-0.66,25870,30.00,0.12,25010,27000
وآفري,بيمه كارآفرين,668,4205068,88630304562,21612,20964,21590,-22.00,-0.10,21077,-535.00,-2.48,20964,21612
فرآور,فرآوري‌موادمعدني‌ايران‌,665,2231586,67704182600,29750,28500,31230,"1,480.00",4.97,30340,590.00,1.98,28500,31230
ثجوان,تامين مسكن جوانان,664,2822005,36292316519,13018,12660,12628,-390.00,-3.00,12860,-158.00,-1.21,12628,13300
وملت,سرمايه گذاري ملت,658,7661543,34346750324,4399,4486,4486,87.00,1.98,4483,84.00,1.91,4420,4486
كساپا,سايپاشيشه‌,657,1706514,66092898230,40710,38680,38680,"-2,030.00",-4.99,38730,"-1,980.00",-4.86,38680,39360
طلا,صندوق س.پشتوانه طلاي لوتوس,652,454145,35376055884,76849,77400,78506,"1,657.00",2.16,77896,"1,047.00",1.36,77131,78789
وساشرقي,شركت س استان آذربايجان شرقي,652,28354476,26973772880,990,950,960,-30.00,-3.03,980,-10.00,-1.01,950,970
قزوين,كارخانجات‌ قند قزوين‌,650,967367,34180859600,36170,36800,35160,"-1,010.00",-2.79,35580,-590.00,-1.63,34820,36800
تكنو,تكنوتار,645,2569939,63760305620,25840,25470,24550,"-1,290.00",-4.99,24810,"-1,030.00",-3.99,24550,26210
ضخود2006,اختيارخ خودرو-2500-1400/02/08,641,28603,12271883000,365,381,440,75.00,20.55,429,64.00,17.53,381,479
شخارك,پتروشيمي‌ خارك‌,641,971751,41604160350,41900,41900,42940,"1,040.00",2.48,42280,380.00,0.91,41900,43500
كرماشا,صنايع پتروشيمي كرمانشاه,639,1251531,44770406880,34420,34420,36100,"1,680.00",4.88,35620,"1,200.00",3.49,34420,36140
وسرمد,بيمه  سرمد,637,4808957,29720724619,6363,6173,6226,-137.00,-2.15,6180,-183.00,-2.88,6173,6289
فاسمين,كالسيمين‌,637,5553117,78382741630,13510,13600,14180,670.00,4.96,14120,610.00,4.52,13500,14180
شپاكسا,پاكسان‌,634,2429320,72698944710,28620,27900,30050,"1,430.00",5.00,29930,"1,310.00",4.58,27900,30050
سرچشمه,سرمايه گذاري مس سرچشمه,627,5188817,35121566694,6483,6210,6807,324.00,5.00,6680,197.00,3.04,6210,6807
جم پيلن,پلي پروپيلن جم - جم پيلن,627,1371653,93799900710,65520,65400,68790,"3,270.00",4.99,68380,"2,860.00",4.37,65390,68790
شوينده,مديريت صنعت شوينده ت.ص.بهشهر,624,1100938,36212156180,31840,32000,33430,"1,590.00",4.99,32610,770.00,2.42,30530,33430
دسبحان,سبحان دارو,623,1917208,40758042280,20840,20840,21880,"1,040.00",4.99,21180,340.00,1.63,20300,21880
وسپه,سرمايه‌گذاري‌ سپه‌,620,5663321,39338385260,6620,6650,6950,330.00,4.98,6870,250.00,3.78,6650,6950
كنور,توسعه معدني و صنعتي صبانور,620,2365011,1.05692E+11,42670,42700,44800,"2,130.00",4.99,44690,"2,020.00",4.73,42700,44800
پارتا,مجتمع‌صنعتي‌آرتاويل‌تاير,619,926698,58314490364,61585,59738,62330,745.00,1.21,62927,"1,342.00",2.18,59738,63432
فلات,گروه صنايع معادن فلات ايرانيان,618,4119180,54784303570,13924,13228,13228,-696.00,-5.00,13300,-624.00,-4.48,13228,14000
قهكمت,قندهكمتان‌,615,834747,36285315140,45010,43000,42920,"-2,090.00",-4.64,43840,"-1,170.00",-2.60,42760,46000
غشهد,شهد ايران ‌,603,3077091,19908607130,6340,6030,6440,100.00,1.58,6390,50.00,0.79,6030,6590
تايرا,تراكتورسازي‌ايران‌,600,2405960,66200173700,27330,27000,27600,270.00,0.99,27520,190.00,0.70,26010,28670
پارسان,گسترش نفت و گاز پارسيان,600,5871996,1.04963E+11,17030,17230,17880,850.00,4.99,17760,730.00,4.29,17230,17880
بزاگرس,نيروگاه زاگرس كوثر,596,7058482,49002081981,6619,6800,6949,330.00,4.99,6925,306.00,4.62,6800,6949
وليز,ليزينگ‌ايران‌,594,7146736,50205911820,6720,6580,7050,330.00,4.91,7030,310.00,4.61,6580,7050
اوان,مبين وان كيش,590,1885387,96385265345,48948,47500,51395,"2,447.00",5.00,51122,"2,174.00",4.44,47500,51395
وصندوق,سرمايه‌گذاري‌صندوق‌بازنشستگي‌,586,5214238,70544412340,12950,13080,13500,550.00,4.25,13290,340.00,2.63,13080,13590
شرانل,نفت ايرانول,581,3108688,1.16985E+11,35847,35450,37639,"1,792.00",5.00,37631,"1,784.00",4.98,35450,37639
وبوعلي,سرمايه‌گذاري‌بوعلي‌,576,5573415,31538153170,5410,5410,5680,270.00,4.99,5570,160.00,2.96,5410,5680
شسپا,نفت سپاهان,576,3535703,81265408010,21940,21940,23030,"1,090.00",4.97,22980,"1,040.00",4.74,21940,23030
وپخش,داروپخش‌ (هلدينگ‌,570,395904,46502698910,121230,115170,115170,"-6,060.00",-5.00,117520,"-3,710.00",-3.06,115170,122060
حسينا,توسعه خدمات دريايي وبندري سينا,568,1147221,82361893992,69283,66501,72747,"3,464.00",5.00,71793,"2,510.00",3.62,66501,72747
داروح,ح . كارخانجات‌داروپخش,565,1115406,29564834070,26200,23920,25950,-250.00,-0.95,26510,310.00,1.18,23920,28190
خديزل,بهمن  ديزل,563,728688,32360301199,43027,42001,44996,"1,969.00",4.58,43925,898.00,2.09,42001,45000
بخاور,بيمه زندگي خاورميانه,553,4012497,27892222675,6815,6790,6910,95.00,1.39,6891,76.00,1.12,6790,7089
وسكاب,س.ص.بازنشستگي كاركنان بانكها,553,10559284,66531398780,6020,6100,6320,300.00,4.98,6300,280.00,4.65,6100,6320
واعتبار,سرمايه گذاري اعتبار ايران,552,4089861,35808830960,8370,8310,8780,410.00,4.90,8640,270.00,3.23,8310,8780
شپارس,بين‌ المللي‌ محصولات‌  پارس‌,551,1161671,19454494480,16310,16640,16510,200.00,1.23,16480,170.00,1.04,16010,17090
وثخوز,سرمايه گذاري و توسعه خوزستان,547,708887,55699522637,75356,75357,79123,"3,767.00",5.00,78573,"3,217.00",4.27,75357,79123
پكرمان,گروه‌ صنعتي‌ بارز,540,1990206,52003194670,25030,25500,26280,"1,250.00",4.99,26130,"1,100.00",4.39,25080,26280
لوتوس,تامين سرمايه لوتوس پارسيان,539,1796934,18354426650,9920,9620,10330,410.00,4.13,10030,110.00,1.11,9620,10400
تسه9907,امتياز تسهيلات مسكن مهر99,535,14778,9462322254,627473,658846,600005,"-27,468.00",-4.38,640298,"12,825.00",2.04,597000,658846
قمرو,قند مرودشت‌,534,775441,25017659400,30810,32200,32350,"1,540.00",5.00,31470,660.00,2.14,31000,32350
شفا,سرمايه گذاري شفادارو,534,656326,29589469180,44120,42320,45600,"1,480.00",3.35,44680,560.00,1.27,41960,46080
زاگرس,پتروشيمي زاگرس,534,863518,1.59317E+11,175741,184500,184528,"8,787.00",5.00,184497,"8,756.00",4.98,180000,184528
وتعاون,بيمه  تعاون,532,2444271,16370800802,6711,6510,6570,-141.00,-2.10,6700,-11.00,-0.16,6510,6912
فن آوا,گروه فن آوا,530,2231837,41484146086,18229,18767,18775,546.00,3.00,18587,358.00,1.96,17701,18775
فسازان,غلتك سازان سپاهان,529,1308082,46103233630,33730,34000,35410,"1,680.00",4.98,35130,"1,400.00",4.15,32500,35410
ونفت,سرمايه‌گذاري‌ صنعت‌ نفت‌,522,2210827,35335417720,15390,15390,16150,760.00,4.94,15810,420.00,2.73,15390,16150
ساربيل,سيمان آرتا اردبيل,519,1336873,63611689110,45390,47600,47650,"2,260.00",4.98,47580,"2,190.00",4.82,45600,47650
زر,صندوق س.پشتوانه سكه طلاي زر,517,1570900,74090275991,46495,47050,47300,805.00,1.73,47164,669.00,1.44,47000,47340
رتكو,كنترل‌خوردگي‌تكين‌كو,516,3145157,68389218210,22820,22370,21680,"-1,140.00",-5.00,21740,"-1,080.00",-4.73,21680,22800
دسبحا,گروه دارويي سبحان,513,1450476,27789021460,18890,18890,18960,70.00,0.37,19040,150.00,0.79,17960,19820
والبر,سرمايه‌ گذاري‌ البرز(هلدينگ‌,508,2140784,35426208330,15860,15300,16650,790.00,4.98,16350,490.00,3.09,15300,16650
ثرود,سرمايه‌گذاري مسكن زاينده رود,504,3629549,56932715554,14947,15694,15694,747.00,5.00,15686,739.00,4.94,15540,15694
آ س پ,آ.س.پ,500,4247724,66316818326,14893,15470,15637,744.00,5.00,15612,719.00,4.83,15200,15637
امين يكم2,صندوق درآمد ثابت امين يكم فردا,500,50000000,50000000,10183,1,1,"-10,182.00",-99.99,1,"-10,182.00",-99.99,1,1
ثقزوي,شركت عمران و سازندگي قزوين,499,1324535,41638082260,32408,31436,31436,-972.00,-3.00,31436,-972.00,-3.00,31436,31436
سبجنو,سيمان‌ بجنورد,496,671892,35498046210,50550,51420,53070,"2,520.00",4.99,52090,"1,540.00",3.05,51420,53070
سهگمت,سيمان‌هگمتان‌,493,1145851,26989274960,23400,22460,23520,120.00,0.51,23480,80.00,0.34,22460,24300
شراز,پالايش نفت شيراز,491,617708,60079557045,95899,93176,96500,601.00,0.63,97262,"1,363.00",1.42,93176,99900
آكورد,صندوق س. آرمان آتي كوثر-د,491,15178449,4.64945E+11,30619,30634,30628,9.00,0.03,30632,13.00,0.04,30625,30638
دسينا,داروسازي‌ سينا,488,840284,22225836840,26890,25600,26530,-360.00,-1.34,26690,-200.00,-0.74,25600,26970
دلرح,ح . داروسازي‌ اكسير,487,843037,23076194940,26900,27300,27150,250.00,0.93,27370,470.00,1.75,26670,28900
كهمدا,شيشه‌ همدان‌,484,2902578,29218156360,9600,9950,10080,480.00,5.00,9870,270.00,2.81,9560,10080
سجام,مجتمع سيمان غرب آسيا,482,3279715,18286190319,5697,5527,5527,-170.00,-2.98,5582,-115.00,-2.02,5527,5800
شبصير,توليدات پتروشيمي قائد بصير,480,266288,24679165026,89488,89488,93000,"3,512.00",3.92,91084,"1,596.00",1.78,89488,93960
ثمسكن,سرمايه‌گذاري‌ مسكن‌,476,7176913,34872070950,4630,4630,4860,230.00,4.97,4790,160.00,3.46,4630,4860
سخوز,سيمان خوزستان,476,1538528,35828755620,22720,21700,23310,590.00,2.60,23130,410.00,1.80,21700,23670
دلر,داروسازي‌ اكسير,469,771162,27381613090,35090,33700,34990,-100.00,-0.28,35320,230.00,0.66,33400,36840
غپينو,پارس‌ مينو,468,8787170,61773805100,6700,7030,7030,330.00,4.93,7030,330.00,4.93,7030,7030
ولبهمن,شركت بهمن ليزينگ,459,4973875,40652316595,7807,7815,8197,390.00,5.00,8087,280.00,3.59,7815,8197
دتماد,توليدمواداوليه‌داروپخش‌,450,419212,20631181110,48640,46400,49040,400.00,0.82,48880,240.00,0.49,46400,50800
سبهان,سيمان‌ بهبهان‌,445,503342,75461032640,142790,149920,149920,"7,130.00",4.99,149920,"7,130.00",4.99,149920,149920
شساخت,مهندسي و ساختمان صنايع نفت,444,1091301,44973475063,41902,40645,41500,-402.00,-0.96,41211,-691.00,-1.65,40645,42890
شاملا,معدني‌ املاح‌  ايران‌,440,380567,20226145870,53650,52540,54140,490.00,0.91,53440,-210.00,-0.39,51760,55000
لكما,كارخانجات‌مخابراتي‌ايران‌,440,4583593,32465589219,7302,7083,7083,-219.00,-3.00,7083,-219.00,-3.00,7083,7083
آينده,بازرگاني آينده سازان بهشت پارس,439,1743129,42832196588,25331,24572,24572,-759.00,-3.00,24572,-759.00,-3.00,24572,24580
خكمك,كمك‌فنرايندامين‌,437,1617529,48121487750,28340,29750,29750,"1,410.00",4.98,29570,"1,230.00",4.34,29750,29750
غشصفا,شيرپاستوريزه‌پگاه‌اصفهان‌,434,732337,20425718980,28160,27970,27750,-410.00,-1.46,28050,-110.00,-0.39,27060,28500
دپارس,پارس‌ دارو,431,254976,21953690860,85690,81440,86600,910.00,1.06,85870,180.00,0.21,81440,89000
درازك,دارويي‌ رازك‌,431,727883,26599256610,36410,34800,37000,590.00,1.62,36480,70.00,0.19,34600,38050
سپ,پرداخت الكترونيك سامان كيش,428,729495,11424820830,15440,15000,15580,140.00,0.91,15490,50.00,0.32,14900,16130
عيار,صندوق س. پشتوانه طلاي مفيد,427,471729,12947630688,27118,27350,27541,423.00,1.56,27447,329.00,1.21,27151,27700
كخاك,صنايع‌خاك‌چيني‌ايران‌,426,573883,25135582020,44860,43980,43500,"-1,360.00",-3.03,44300,-560.00,-1.25,42620,46000
تماوند,تامين سرمايه دماوند,425,1381118,24319465613,17320,16660,17450,130.00,0.75,17609,289.00,1.67,16660,18157
سيلام,سيمان‌ ايلام‌,420,3791030,40450290100,10170,10670,10670,500.00,4.92,10540,370.00,3.64,10670,10670
مارون,پتروشيمي مارون,420,146129,22656449973,151236,152000,151000,-236.00,-0.16,152080,844.00,0.56,150000,158797
پخش,پخش البرز,419,1400858,47091191546,32083,32083,33687,"1,604.00",5.00,33518,"1,435.00",4.47,32083,33687
پارسيان,بيمه پارسيان,419,2057938,22469167610,10710,10180,10800,90.00,0.84,10800,90.00,0.84,10180,11240
شغدير,پتروشيمي غدير,414,1359245,75776856910,53195,53200,55854,"2,659.00",5.00,55749,"2,554.00",4.80,53200,55854
بمپنا,توليد برق عسلويه  مپنا,413,239862,17750074866,75339,71573,73500,"-1,839.00",-2.44,74853,-486.00,-0.65,71573,77000
گدنا,تهيه توزيع غذاي دنا آفرين فدك,410,1167002,34693802458,31293,29729,29729,"-1,564.00",-5.00,30149,"-1,144.00",-3.66,29729,29729
وزمين,بانك ايران زمين,406,5164250,71724973289,13846,13570,13970,124.00,0.90,13889,43.00,0.31,13570,14092
هرمز,فولاد هرمزگان جنوب,405,4811159,58845517561,11651,12233,12233,582.00,5.00,11936,285.00,2.45,11820,12233
ارفع,شركت آهن و فولاد ارفع,403,4610007,51585908330,10658,11190,11190,532.00,4.99,11169,511.00,4.79,11180,11190
افق ملت,صندوق س در سهام افق ملت,402,312908,39535863770,115060,120500,126560,"11,500.00",9.99,126350,"11,290.00",9.81,120500,126560
شيراز,پتروشيمي‌شيراز,400,1230495,67528280800,52320,52320,54600,"2,280.00",4.36,54050,"1,730.00",3.31,52320,54930
شگل,گلتاش‌,380,3065852,77563243260,24100,25300,25300,"1,200.00",4.98,25300,"1,200.00",4.98,24970,25300
دابور,داروسازي‌ ابوريحان‌,379,450675,17250767360,37650,36300,38210,560.00,1.49,37870,220.00,0.58,36300,39500
شنفت,نفت‌ پارس‌,376,756015,39919604980,50450,50450,52970,"2,520.00",5.00,52230,"1,780.00",3.53,50450,52970
غپونه,نوش پونه مشهد,374,1051307,20817219346,19253,19600,19830,577.00,3.00,19801,548.00,2.85,19300,19830
قشهد,شهد,370,371239,12285969760,33140,31490,33500,360.00,1.09,33130,-10.00,-0.03,31490,34180
ضخود2005,اختيارخ خودرو-2000-1400/02/08,365,12122,8628525000,558,580,755,197.00,35.30,712,154.00,27.60,580,760
قنقش,قند نقش جهان,361,526506,40840775396,76062,77583,77583,"1,521.00",2.00,77569,"1,507.00",1.98,76501,77583
وتوسم,سرمايه‌گذاري‌توسعه‌ملي‌,360,3283432,37521437280,10920,10620,11460,540.00,4.95,11300,380.00,3.48,10620,11460
تسه9904,امتياز تسهيلات مسكن تير99,357,11278,7072860157,619837,650828,650000,"30,163.00",4.87,627138,"7,301.00",1.18,588846,650828
غفارس,شير پاستوريزه پگاه فارس,356,3492686,43365189376,11825,12416,12416,591.00,5.00,12300,475.00,4.02,12416,12416
دالبر,البرزدارو,353,889609,19016408620,20930,20930,21170,240.00,1.15,21100,170.00,0.81,20930,21750
بساما,بيمه سامان,352,1371312,29952637869,20911,19875,21956,"1,045.00",5.00,21467,556.00,2.66,19875,21956
كاسپين,داروسازي كاسپين تامين,351,471782,11467080157,25085,23831,24320,-765.00,-3.05,24900,-185.00,-0.74,23831,24880
بپاس,بيمه پاسارگاد,350,209045,18447594115,92891,88247,88247,"-4,644.00",-5.00,91986,-905.00,-0.97,88247,88247
خراسان,پتروشيمي خراسان,349,490759,33542058390,66680,65500,67740,"1,060.00",1.59,67780,"1,100.00",1.65,65500,70000
شپاس,نفت پاسارگاد,348,765788,17271089060,21886,21265,22370,484.00,2.21,22115,229.00,1.05,21265,22970
غالبر,لبنيات‌ كالبر,343,1607786,26962571220,15980,16770,16770,790.00,4.94,16370,390.00,2.44,16770,16770
هجرتح,ح . پخش هجرت,343,943687,19283531370,20620,21650,20600,-20.00,-0.10,20434,-186.00,-0.90,19900,21650
قاسم,قاسم ايران,336,3421585,48268299595,13436,14107,14107,671.00,4.99,14027,591.00,4.40,14107,14107
ياقوت,صندوق س ياقوت آگاه-ثابت,325,5306427,62891031847,11837,11843,11862,25.00,0.21,11852,15.00,0.13,11842,11862
وهنر,گروه توسعه هنر ايران,323,3542076,32672109024,8956,9224,9224,268.00,2.99,9224,268.00,2.99,9224,9224
غدشت,دشت‌ مرغاب‌,312,229909,71591363510,296570,311390,311390,"14,820.00",5.00,311390,"14,820.00",5.00,311390,311390
تصميم,صندوق س با درآمد ثابت تصميم,308,7746611,1.20701E+11,15576,15591,15585,9.00,0.06,15581,5.00,0.03,15527,15591
كفپارس,فرآورده‌هاي‌ نسوز پارس‌,306,4043682,18034821720,4250,4460,4460,210.00,4.94,4320,70.00,1.65,4460,4460
پلاست,كارخانجات توليدي پلاستيران,304,222937,17005819301,77590,79890,75263,"-2,327.00",-3.00,76491,"-1,099.00",-1.42,75263,79890
ساينا,صنايع بهداشتي ساينا,301,52440,8562550881,166943,161070,162500,"-4,443.00",-2.66,166299,-644.00,-0.39,160020,166900
شصفها,پتروشيمي‌ اصفهان‌,297,114766,13683479348,119513,117124,118400,"-1,113.00",-0.93,119242,-271.00,-0.23,117124,121900
سكه0012پ01,سكه تمام بهارتحويلي 1روزه رفاه,289,78100,85115464100,1080318,1088000,1096968,"16,650.00",1.54,1089827,"9,509.00",0.88,1083555,1096968
ساروم,سيمان‌اروميه‌,288,622491,23088191190,35330,37090,37090,"1,760.00",4.98,36070,740.00,2.09,37090,37090
بذر,صندوق س بذر اميد آفرين-سهام,288,215442,21493906780,92770,95000,102000,"9,230.00",9.95,99770,"7,000.00",7.55,95000,102040
پاسا,ايران‌ياساتايرورابر,286,1356294,33378395340,23440,24610,24610,"1,170.00",4.99,24190,750.00,3.20,24610,24610
اوصتا2,صندوق انديشه ورزان صباتامين -د,281,28100000,28100000,17836,1,1,"-17,835.00",-99.99,1,"-17,835.00",-99.99,1,1
فردا,صندوق س آواي فرداي زاگرس-ثابت,280,5366659,54414858747,10122,10139,10142,20.00,0.20,10139,17.00,0.17,10139,10143
شاوان,پالايش نفت لاوان,279,705012,56997582146,77084,74250,80938,"3,854.00",5.00,80846,"3,762.00",4.88,74250,80938
حپترو,حمل و نقل پتروشيمي( سهامي عام,273,497428,23901415400,45770,48050,48050,"2,280.00",4.98,46760,990.00,2.16,48050,48050
سصوفي,سيمان‌ صوفيان‌,271,2873107,42636907880,14140,14840,14840,700.00,4.95,14730,590.00,4.17,14840,14840
دارا,صندوق س. دارا الگوريتم-د,271,8542516,85970206030,10059,10093,10069,10.00,0.10,10064,5.00,0.05,10045,10118
دفرا,فرآورده‌هاي‌ تزريقي‌ ايران‌,270,314729,8479182070,27470,26200,26650,-820.00,-2.99,27380,-90.00,-0.33,26200,27510
تسه9801,امتياز تسهيلات مسكن فروردين98,269,4197,2640263007,618995,630012,629394,"10,399.00",1.68,629083,"10,088.00",1.63,591020,649944
شپلي,پلي اكريل ايران,264,1363815,16538984505,12374,12127,12127,-247.00,-2.00,12138,-236.00,-1.91,12127,12127
تسه9902,امتياز تسهيلات مسكن ارديبهشت99,263,3710,2308677913,616517,647342,621858,"5,341.00",0.87,622285,"5,768.00",0.94,588011,647342
تسه9906,امتياز تسهيلات مسكن شهريور99,253,3189,1990705258,615358,646125,600010,"-15,348.00",-2.49,624241,"8,883.00",1.44,588100,646125
دشيري,شيرين دارو,252,84455,22224242902,255552,263218,263218,"7,666.00",3.00,263149,"7,597.00",2.97,258000,263218
سپاس,صندوق س. پاداش سهامداري توسعه1,251,7628361,76422571275,10011,10020,10011,0,0,10018,7.00,0.07,10011,10021
الماس,صندوق س.امين تدبيرگران فردا-س,250,149393,16900110847,109241,109660,114400,"5,159.00",4.72,113125,"3,884.00",3.56,109660,117000
دقاضي,داروسازي شهيد قاضي,249,682480,32976179807,47459,48882,47900,441.00,0.93,48318,859.00,1.81,47550,48882
تسه9712,امتياز تسهيلات مسكن اسفند97,240,4635,2870466890,609596,640070,613950,"4,354.00",0.71,619302,"9,706.00",1.59,585000,640075
ضسپا1103,اختيارخ خساپا-2500-1399/11/26,240,15008,276269000,6,9,23,17.00,283.33,18,12.00,200.00,9,25
ختراك,ريخته‌گري‌ تراكتورسازي‌ ايران‌,236,1617718,23440733820,13800,14490,14490,690.00,5.00,14100,300.00,2.17,14490,14490
تسه9810,امتياز تسهيلات مسكن دي98,236,4372,2688017656,606951,637298,620000,"13,049.00",2.15,614826,"7,875.00",1.30,576604,637298
ارمغان,ص سرمايه گذاري ارمغان ايرانيان,234,4965682,49794059446,10027,10026,10026,-1.00,-0.01,10028,1.00,0.01,10019,10036
زكشت,كشاورزي مكانيزه اصفهان كشت,234,1022839,33860852301,31544,33121,33121,"1,577.00",5.00,32551,"1,007.00",3.19,32500,33121
ثنظام,س. ساختماني نظام مهندسي ايران,232,399070,20211698290,48236,50647,50647,"2,411.00",5.00,50577,"2,341.00",4.85,50647,50647
لازما,كارخانه هاي صنعتي آزمايش,231,610007,22060903155,35112,36165,36165,"1,053.00",3.00,36165,"1,053.00",3.00,36165,36165
كتوكا,توليدي و خدمات صنايع نسوز توكا,229,727605,27454719465,35937,37733,37733,"1,796.00",5.00,36844,907.00,2.52,37733,37733
ثالوند,سرمايه گذاري مسكن الوند,222,1893404,59983038720,30172,31680,31680,"1,508.00",5.00,31680,"1,508.00",5.00,31680,31680
تسه9802,امتياز تسهيلات مسكن ارديبهشت98,218,3289,2098882898,625967,657264,620010,"-5,957.00",-0.95,638152,"12,185.00",1.95,610010,657265
حتوكا,حمل‌ونقل‌توكا,216,403585,12688712400,33090,31440,31440,"-1,650.00",-4.99,32650,-440.00,-1.33,31440,31440
ورازي,بيمه رازي,216,1775752,14237022502,7647,8000,8029,382.00,5.00,7911,264.00,3.45,7418,8029
شفارس,صنايع‌ شيميايي‌ فارس‌,212,1045103,49088487910,44740,46970,46970,"2,230.00",4.98,46900,"2,160.00",4.83,46970,46970
حخزر,كشتيراني درياي خزر,212,305131,7118640946,23278,22870,23400,122.00,0.52,23285,7.00,0.03,22870,24070
فسديد,لوله‌وتجهيزات‌ سديد - ورشكسته,208,156588,18795160233,118984,120170,120173,"1,189.00",1.00,120029,"1,045.00",0.88,117795,120173
تسه9803,امتياز تسهيلات مسكن خرداد98,203,3152,1998723779,620422,651443,627000,"6,578.00",1.06,634113,"13,691.00",2.21,600350,651443
افران,صندوق س افرا نماد پايدار-ثابت,200,6735372,85021553798,12611,12632,12625,14.00,0.11,12623,12.00,0.10,12614,12632
وسديد,گروه ‌صنعتي‌سديد,199,1257880,28977781560,23507,23037,23037,-470.00,-2.00,23136,-371.00,-1.58,23037,23037
تسه9905,امتياز تسهيلات مسكن مرداد99,198,2203,1371350222,608332,638748,613000,"4,668.00",0.77,622492,"14,160.00",2.33,578100,638748
سپر,صندوق س سپر سرمايه بيدار- ثابت,196,2733481,31102875476,11396,11396,11397,1.00,0.01,11378,-18.00,-0.16,11311,11410
شتولي,تولي‌پرس‌,194,240268,9230856292,37666,38419,38419,753.00,2.00,38335,669.00,1.78,38419,38419
كدما,معدني‌ دماوند,186,40740,9591010800,247810,235420,235420,"-12,390.00",-5.00,245300,"-2,510.00",-1.01,235420,235420
گكيش,توريستي ورفاهي آبادگران كيش,180,169650,15164334900,94090,89386,89386,"-4,704.00",-5.00,90333,"-3,757.00",-3.99,89386,89386
داسوه,داروسازي‌ اسوه‌,177,613990,25677061800,44020,41820,41820,"-2,200.00",-5.00,42800,"-1,220.00",-2.77,41820,41820
وتوكا,سرمايه‌گذاري‌توكافولاد(هلدينگ,177,2503389,26485855620,10080,10580,10580,500.00,4.96,10330,250.00,2.48,10580,10580
فجام,جام‌دارو,176,816553,8598303090,11080,10530,10530,-550.00,-4.96,10980,-100.00,-0.90,10530,10530
كيميا,معدني كيمياي زنجان گستران,170,398124,5990173704,14330,15046,15046,716.00,5.00,14410,80.00,0.56,15046,15046
وسين,بيمه سينا,166,1152269,21586607446,17842,18734,18734,892.00,5.00,18734,892.00,5.00,18734,18734
صايند,صندوق س. گنجينه آينده روشن-د,157,2120550,21131040330,9949,9945,9975,26.00,0.26,9965,16.00,0.16,9945,9979
كفرآور,فرآورده هاي سيمان شرق,155,1270402,30729563608,23488,23488,24192,704.00,3.00,24189,701.00,2.98,23488,24192
كپشير,پشم‌شيشه‌ايران‌,154,638856,21395287440,31900,33490,33490,"1,590.00",4.98,32540,640.00,2.01,33490,33490
تسه9903,امتياز تسهيلات مسكن خرداد99,154,1236,774552990,615917,630001,600000,"-15,917.00",-2.58,626661,"10,744.00",1.74,585122,646712
فيروزا,صندوق بادرآمد ثابت فيروزه آسيا,151,1203238,26799483742,22298,22271,22273,-25.00,-0.11,22273,-25.00,-0.11,22130,22300
ضسپا1100,اختيارخ خساپا-1600-1399/11/26,150,8230,4978379000,439,550,620,181.00,41.23,605,166.00,37.81,550,620
مفاخر,توسعه فناوري اطلاعات خوارزمي,146,526976,28459865856,51435,54006,54006,"2,571.00",5.00,52844,"1,409.00",2.74,54006,54006
زعف0008پ10,زعفران0008نگين طلاي سرخ(پ),146,204708,25791551433,125950,125500,126450,500.00,0.40,125992,42.00,0.03,125500,126640
آسام,صندوق س.آرمان سپهر آشنا-م,139,103570,10628415410,100447,101000,103000,"2,553.00",2.54,102621,"2,174.00",2.16,100500,104000
سكه9912پ04,سكه تمام بهارتحويل1روزه صادرات,138,106500,1.16066E+11,1078532,1082100,1097500,"18,968.00",1.76,1089824,"11,292.00",1.05,1082000,1097999
ضغدر1119,اختيارخ وغدير-10000-1399/11/26,137,4861,4876942000,222,890,1200,978.00,440.54,1003,781.00,351.80,890,1200
سباقر,سيمان باقران,134,1573652,26632486448,16432,16924,16924,492.00,2.99,16924,492.00,2.99,16924,16924
كيان2,صندوق س. با درآمد ثابت كيان,134,13400000,13400000,27071,1,1,"-27,070.00",-100.00,1,"-27,070.00",-100.00,1,1
ضشنا2002,اختيارخ شپنا-12000-1400/02/27,132,4778,5990016000,909,1150,1400,491.00,54.02,1254,345.00,37.95,1150,1600
گوهر,صندوق سكه طلاي كيان,124,593469,32043524202,53355,54437,54200,845.00,1.58,53994,639.00,1.20,53613,54437
ضسپا1101,اختيارخ خساپا-1800-1399/11/26,124,6598,2691605000,261,399,420,159.00,60.92,408,147.00,56.32,380,420
دقاضيح,ح . داروسازي شهيد قاضي,120,77474,2808563231,36362,35530,36890,528.00,1.45,36252,-110.00,-0.30,35530,37350
كهرام,توليدي گرانيت بهسرام,119,196408,18405197272,90980,93709,93709,"2,729.00",3.00,93347,"2,367.00",2.60,93709,93709
تسه9901,امتياز تسهيلات مسكن فروردين99,119,883,561443006,610517,641042,601000,"-9,517.00",-1.56,635836,"25,319.00",4.15,600000,641042
خپويش,سازه‌ پويش‌,116,238389,12422450790,49630,52110,52110,"2,480.00",5.00,50210,580.00,1.17,52110,52110
فسا,پتروشيمي فسا,114,1547382,2833256442,1887,1831,1831,-56.00,-2.97,1879,-8.00,-0.42,1831,1831
آساميد,صندوق س.مشترك آسمان اميد -د,114,3826795,44073333747,11504,11507,11520,16.00,0.14,11517,13.00,0.11,11507,11527
سايرا,ايرانيت‌,110,207872,10225223680,48226,49190,49190,964.00,2.00,49178,952.00,1.97,49190,49190
تسه9812,امتياز تسهيلات مسكن اسفند98,109,999,635797078,609530,640006,640006,"30,476.00",5.00,636433,"26,903.00",4.41,600000,640006
ثروتم,صندوق س. ثروت آفرين پارسيان-س,107,206390,15954601500,75614,75800,78370,"2,756.00",3.64,77303,"1,689.00",2.23,75550,78400
ثاژن,سخت آژند,104,1209762,12565797894,9988,10387,10387,399.00,3.99,10387,399.00,3.99,10387,10387
آكورد2,صندوق س. آرمان آتي كوثر-د,100,10000000,10000000,30619,1,1,"-30,618.00",-100.00,1,"-30,618.00",-100.00,1,1
فيروزه2,صندوق شاخص30 شركت فيروزه- سهام,100,1000000,1000000,132780,1,1,"-132,779.00",-100.00,1,"-132,779.00",-100.00,1,1
معيار,سرمايه گذاري معيار صنعت پارس,94,265802,11636545758,42504,43779,43779,"1,275.00",3.00,43214,710.00,1.67,43779,43779
ضخود2008,اختيارخ خودرو-3500-1400/02/08,92,4068,560574000,117,190,140,23.00,19.66,138,21.00,17.95,133,190
آبين,كشت و صنعت آبشيرين,90,2540623,11059331919,4441,4353,4353,-88.00,-1.98,4353,-88.00,-1.98,4353,4353
تسه9811,امتياز تسهيلات مسكن بهمن98,89,521,328043247,602628,632759,617600,"14,972.00",2.48,629642,"27,014.00",4.48,600000,632759
سكه0011پ02,سكه تمام بهارتحويلي 1روزه ملت,89,18100,19720409800,1079379,1085001,1098000,"18,621.00",1.73,1089525,"10,146.00",0.94,1081400,1099000
دروز,داروسازي‌ روزدارو,87,821856,22412013120,25980,27270,27270,"1,290.00",4.97,26520,540.00,2.08,27270,27270
اخزا901,اسنادخزانه-م1بودجه99-010621,86,54551,40700022047,747565,746000,746000,"-1,565.00",-0.21,746091,"-1,474.00",-0.20,745500,747565
جهرم,پتروشيمي جهرم,83,822639,1647745917,2064,2003,2003,-61.00,-2.96,2059,-5.00,-0.24,2003,2003
وايرا,سرمايه گذاري صنايع ايران,82,1290095,14974132665,11965,11607,11607,-358.00,-2.99,11686,-279.00,-2.33,11607,11607
تسه9809,امتياز تسهيلات مسكن آذر98,80,900,558269483,600767,630805,615000,"14,233.00",2.37,620299,"19,532.00",3.25,572060,630805
اخزا815,اسنادخزانه-م15بودجه98-010406,79,173793,1.35934E+11,780715,779303,783000,"2,285.00",0.29,782160,"1,445.00",0.19,779300,783001
وبيمهح,ح . سرمايه‌ گذاري‌ صنعت‌ بيمه‌,78,1809479,2895166400,1200,1600,1600,400.00,33.33,1600,400.00,33.33,1600,1600
شكف,كف,77,101450,8673366300,83818,85494,85494,"1,676.00",2.00,85217,"1,399.00",1.67,85494,85494
اخزا903,اسنادخزانه-م3بودجه99-011110,76,203799,1.42574E+11,700958,696211,701000,42.00,0.01,699582,"-1,376.00",-0.20,696211,701000
اخزا902,اسنادخزانه-م2بودجه99-011019,75,247598,1.74703E+11,706295,703873,704500,"-1,795.00",-0.25,705590,-705.00,-0.10,703873,707596
نمرينو,ايران‌ مرينوس‌,67,101138,5850833300,55100,57850,57850,"2,750.00",4.99,55410,310.00,0.56,57850,57850
تسه9808,امتياز تسهيلات مسكن آبان98,67,532,333462388,596961,626809,626809,"29,848.00",5.00,626809,"29,848.00",5.00,626809,626809
ضشنا2001,اختيارخ شپنا-10000-1400/02/27,66,1182,2809259000,1643,2550,2370,727.00,44.25,2377,734.00,44.67,2065,2700
صنوين,صندوق سرمايه‌گذاري صنوين-مختلط,65,34760,3448462060,98300,99000,100000,"1,700.00",1.73,99210,910.00,0.93,99000,100000
گپارس,امور رفاهي كارگزاران پارس,64,36856,7799171872,205449,211612,211612,"6,163.00",3.00,207727,"2,278.00",1.11,211612,211612
ضسپا1104,اختيارخ خساپا-3000-1399/11/26,64,3636,3637000,1,1,1,0,0,1,0,0,1,2
تسه9807,امتياز تسهيلات مسكن مهر98,64,675,431071171,626547,657874,657874,"31,327.00",5.00,638624,"12,077.00",1.93,595220,657874
داراب,پتروشيمي داراب,61,736901,1739823261,2485,2361,2361,-124.00,-4.99,2474,-11.00,-0.44,2361,2361
سفاسي,شركت فارسيت اهواز,58,64384,929704960,14886,14440,14440,-446.00,-3.00,14865,-21.00,-0.14,14440,14440
زنجان,صنايع كشاورزي وكود زنجان,56,131627,1255721580,9835,9540,9540,-295.00,-3.00,9816,-19.00,-0.19,9540,9540
ضخود2009,اختيارخ خودرو-4000-1400/02/08,55,1841,178429000,84,101,95,11.00,13.10,97,13.00,15.48,90,101
تسه9806,امتياز تسهيلات مسكن شهريور98,55,557,349068001,596851,626693,626693,"29,842.00",5.00,626693,"29,842.00",5.00,626693,626693
ضفلا1153,اختيارخ فولاد-10000-1399/11/28,54,1648,1724788000,699,999,1100,401.00,57.37,1047,348.00,49.79,999,1100
زعف0008پ05,زعفران0008نگين زرين(پ),53,42261,5240545194,123836,124000,123950,114.00,0.09,124004,168.00,0.14,123500,124300
سكارون,سيمان كارون,52,5921,1049491329,182730,177249,177249,"-5,481.00",-3.00,182429,-301.00,-0.16,177249,177249
ضملت1124,اختيارخ وبملت-3500-1399/11/28,51,2900,1120000000,263,500,400,137.00,52.09,386,123.00,46.77,350,400
اخزا908,اسنادخزانه-م8بودجه99-020606,50,210234,1.3112E+11,624531,623588,624000,-531.00,-0.09,623686,-845.00,-0.14,620000,624580
سنوين,سرمايه گذاري اقتصاد نوين,50,967526,9258256294,9291,9569,9569,278.00,2.99,9413,122.00,1.31,9569,9569
سخند,صندوق س.سپهرخبرگان نفت-د,49,284230,2849192220,10017,10020,10021,4.00,0.04,10024,7.00,0.07,10020,10030
وپسا,س. پتروشيمي ساختمان  خليج فارس,48,284847,862516716,3089,3028,3028,-61.00,-1.97,3084,-5.00,-0.16,3028,3028
زعف0008پ16,زعفران0008نگين بيرجند(پ),47,28880,3580759160,123989,124604,124498,509.00,0.41,123988,-1.00,0,122400,124604
كارين,صندوق س نگين سامان-ثابت,47,1091366,11038701717,10102,10109,10109,7.00,0.07,10115,13.00,0.13,10109,10115
فنرژي,گسترش صنايع انرژي آذرآب,47,402462,7882620732,19202,19586,19586,384.00,2.00,19494,292.00,1.52,19586,19586
اوصتا,صندوق انديشه ورزان صباتامين -د,45,527577,9411389993,17836,17839,17840,4.00,0.02,17839,3.00,0.02,17831,17850
اخزا821,اسنادخزانه-م21بودجه98-020906,45,32098,19173032104,599464,600000,598000,"-1,464.00",-0.24,597328,"-2,136.00",-0.36,596700,600000
آگاس2,صندوق س.هستي بخش آگاه-س,43,11100000,11100000,62679,1,1,"-62,678.00",-100.00,1,"-62,678.00",-100.00,1,1
تشتاد,صنايع توليدي اشتاد ايران‌,43,258759,4089168477,16291,15803,15803,-488.00,-3.00,16187,-104.00,-0.64,15803,15803
اراد73,مرابحه عام دولت73-ش.خ0402,41,8000000,8E+12,1000000,1000000,1000000,0,0,1000000,0,0,1000000,1000000
تسه9805,امتياز تسهيلات مسكن مرداد98,41,215,140294225,624328,593112,655000,"30,672.00",4.91,652531,"28,203.00",4.52,593112,655544
ضفلا1155,اختيارخ فولاد-14000-1399/11/28,40,2716,15575000,2,4,8,6.00,300.00,6,4.00,200.00,4,8
حاريا,كشتيراني آريا,40,63391,1909083356,31047,30116,30116,-931.00,-3.00,30955,-92.00,-0.30,30116,30116
سدشت,صنايع سيمان دشتستان,39,55397,2590363720,44540,46760,46760,"2,220.00",4.98,44650,110.00,0.25,46760,46760
وسكرد,شركت س استان كردستان,38,904726,642355460,740,710,710,-30.00,-4.05,740,0,0,710,710
سمايه,بانك سرمايه,38,182483,1293986953,7310,7091,7091,-219.00,-3.00,7295,-15.00,-0.21,7091,7091
ضفلا1154,اختيارخ فولاد-12000-1399/11/28,37,1378,181903000,35,120,248,213.00,608.57,132,97.00,277.14,105,248
ضپاس2001,اختيارخ وپارس-2500-1400/02/29,37,571,406024000,509,746,739,230.00,45.19,711,202.00,39.69,650,746
وسگيلا,شركت س استان گيلان,36,626956,476486560,800,760,760,-40.00,-5.00,800,0,0,760,760
اخزا817,اسنادخزانه-م17بودجه98-010512,36,73792,56787943244,769471,771000,771000,"1,529.00",0.20,769568,97.00,0.01,767340,771800
كقزوي,شيشه‌ قزوين‌,35,74636,759197392,10486,10172,10172,-314.00,-2.99,10474,-12.00,-0.11,10172,10172
سكه0112پ03,سكه تمام بهارتحويلي1روزه سامان,35,10100,11019680000,1078495,1084000,1096500,"18,005.00",1.67,1091057,"12,562.00",1.16,1082501,1096500
ولراز,ليزينگ رازي,35,10413,604214325,59819,58025,58025,"-1,794.00",-3.00,59762,-57.00,-0.10,58025,58025
وآرينح,ح. شركت توسعه اقتصادي آرين,35,346161,1096391922,3368,3200,3166,-202.00,-6.00,3167,-201.00,-5.97,3166,3200
كيسون,شركت كيسون,33,43920,639123840,14848,14552,14552,-296.00,-1.99,14842,-6.00,-0.04,14552,14552
تسه9804,امتياز تسهيلات مسكن تير98,33,319,199934176,599909,629904,609000,"9,091.00",1.52,626753,"26,844.00",4.47,609000,629904
آوا2,صندوق س.سهام آواي معيار-س,33,175000000,175000000,7489,1,1,"-7,488.00",-99.99,1,"-7,488.00",-99.99,1,1
اخزا907,اسنادخزانه-م7بودجه99-020704,32,110677,67834314472,615985,614370,615985,0,0,612903,"-3,082.00",-0.50,611000,615999
اخزا808,اسنادخزانه-م8بودجه98-000817,32,12416,10860222920,874222,875000,875003,781.00,0.09,874696,474.00,0.05,872001,876000
خاتم,صندوق س خاتم ايساتيس پويا-ثابت,32,573736,6028678257,10502,10508,10508,6.00,0.06,10508,6.00,0.06,10505,10510
ضپاس2002,اختيارخ وپارس-3000-1400/02/29,31,834,415687000,336,499,500,164.00,48.81,498,162.00,48.21,450,510
نگين,ص.س. زمين و ساختمان نگين شهرري,30,23191,1119502970,47530,48000,47540,10.00,0.02,48270,740.00,1.56,47530,49000
اخزا813,اسنادخزانه-م13بودجه98-010219,29,32184,25764002684,800353,798000,800003,-350.00,-0.04,800522,169.00,0.02,798000,804000
ضسپا3003,اختيارخ خساپا-2000-1400/03/26,29,1454,759725000,325,399,540,215.00,66.15,523,198.00,60.92,399,579
وحافظ,بيمه حافظ,28,33355,2456762525,75158,73655,73655,"-1,503.00",-2.00,74781,-377.00,-0.50,73655,73655
اخزا905,اسنادخزانه-م5بودجه99-020218,28,136527,89952557086,658307,661000,658900,593.00,0.09,658863,556.00,0.08,657018,661000
ضپار1115,اختيارخ خپارس-5000-1399/11/19,28,280,197070000,878,350,870,-8.00,-0.91,704,-174.00,-19.82,350,880
ضفلا1152,اختيارخ فولاد-9000-1399/11/28,28,1045,2007500000,2800,1920,1920,-880.00,-31.43,1921,-879.00,-31.39,1900,2000
گنجين,صندوق س. گنجينه يكم آويد-د,27,59753,727718358,12167,12173,12179,12.00,0.10,12179,12.00,0.10,12173,12183
اطلس2,صندوق س.توسعه اندوخته آينده-س,26,260000,260000,189236,1,1,"-189,235.00",-100.00,1,"-189,235.00",-100.00,1,1
اخزا818,اسنادخزانه-م18بودجه98-010614,26,148522,1.12985E+11,760640,761000,758020,"-2,620.00",-0.34,760728,88.00,0.01,756402,761000
زعف0008پ11,زعفران0008نگين سحرخيز(پ),26,62920,7878735300,125152,125101,125890,738.00,0.59,125218,66.00,0.05,125101,125890
ضملت1126,اختيارخ وبملت-4500-1399/11/28,25,1004,32381000,32,40,15,-17.00,-53.13,32,0,0,11,50
ساروج,بين المللي ساروج بوشهر,25,905259,18708082494,21305,20666,20666,-639.00,-3.00,20666,-639.00,-3.00,20666,20666
ضملت1123,اختيارخ وبملت-3000-1399/11/28,25,403,342530000,871,850,850,-21.00,-2.41,850,-21.00,-2.41,840,850
وسخراج,شركت س استان خراسان جنوبي,23,680983,1436874130,2220,2110,2110,-110.00,-4.95,2220,0,0,2110,2110
وسيستا,شركت س استان سيستان وبلوچستان,22,849574,628684760,770,740,740,-30.00,-3.90,770,0,0,740,740
دمعيار,صندوق س. توازن معيار-د,22,732449,7393934757,10086,10095,10099,13.00,0.13,10095,9.00,0.09,10093,10104
اخزا811,اسنادخزانه-م11بودجه98-001013,21,119487,1.01597E+11,851622,849001,855000,"3,378.00",0.40,850280,"-1,342.00",-0.16,849001,855000
اخزا812,اسنادخزانه-م12بودجه98-001111,21,11722,9839311553,839799,839000,841150,"1,351.00",0.16,839388,-411.00,-0.05,838207,841150
زعف0008پ19,زعفران0008نگين تروند قاينات(پ),21,9700,1198798900,123854,123880,123849,-5.00,0,123588,-266.00,-0.21,123000,123888
ضملي3002,اختيارخ فملي-10000-1400/03/02,20,252,326751000,1905,271,1900,-5.00,-0.26,1297,-608.00,-31.92,260,2000
سرو2,صندوق س سروسودمند مدبران-سهام,20,10000000,10000000,63330,1,1,"-63,329.00",-100.00,1,"-63,329.00",-100.00,1,1
ضغدر1120,اختيارخ وغدير-12000-1399/11/26,19,682,82363000,51,70,200,149.00,292.16,121,70.00,137.25,70,200
ضگل1142,اختيارخ كگل-16000-1399/11/21,19,503,648400000,1990,2500,1200,-790.00,-39.70,1289,-701.00,-35.23,1200,2500
اخزا814,اسنادخزانه-م14بودجه98-010318,18,19292,15185479276,790332,786890,788000,"-2,332.00",-0.30,787139,"-3,193.00",-0.40,786890,788100
اراد50,مرابحه عام دولت5-ش.خ0302,18,438500,4.385E+11,1000001,1000000,1000001,0,0,1000000,-1.00,0,1000000,1000001
دحاوي,الحاوي,18,46055,551692845,12349,11979,11979,-370.00,-3.00,12338,-11.00,-0.09,11979,11979
اخزا816,اسنادخزانه-م16بودجه98-010503,17,26726,20593304870,772076,769000,769020,"-3,056.00",-0.40,770534,"-1,542.00",-0.20,769000,772100
ضمخا2001,اختيارخ اخابر-10000-1400/02/29,17,437,894000000,2244,2200,2000,-244.00,-10.87,2046,-198.00,-8.82,2000,2200
ضفلا1151,اختيارخ فولاد-8000-1399/11/28,16,356,1048248000,2112,2900,2950,838.00,39.68,2945,833.00,39.44,2900,2950
ضغدر1118,اختيارخ وغدير-9000-1399/11/26,16,110,221185000,1061,1300,2150,"1,089.00",102.64,2011,950.00,89.54,1300,2200
زعف0008پ18,زعفران0008نگين بهرامن(پ),16,10906,1346793054,125148,123001,123999,"-1,149.00",-0.92,123491,"-1,657.00",-1.32,123000,123999
وسصفا,شركت س استان اصفهان,15,95528,97438560,1070,1020,1020,-50.00,-4.67,1070,0,0,1020,1020
اخزا809,اسنادخزانه-م9بودجه98-000923,15,19491,16781145002,860754,860754,861001,247.00,0.03,860969,215.00,0.02,860754,862000
داريك,صندوق س.اعتماد داريك-د,15,32243,334000860,10277,10275,10400,123.00,1.20,10359,82.00,0.80,10275,10400
اخزا718,اسنادخزانه-م18بودجه97-000525,14,10063,9158093910,911683,907501,911000,-683.00,-0.07,910076,"-1,607.00",-0.18,907501,911000
اخزا806,اسنادخزانه-م6بودجه98-000519,14,7584,6914186924,913542,912000,912500,"-1,042.00",-0.11,911681,"-1,861.00",-0.20,910011,912500
ضبدر1159,اختيارخ شبندر-16000-1399/11/19,14,46,196914000,2032,4020,4379,"2,347.00",115.50,4281,"2,249.00",110.68,4020,4500
ضچاد2003,اختيارخ كچاد-18000-1400/02/05,13,55,211840000,3000,3888,3588,588.00,19.60,3852,852.00,28.40,3588,3888
شستا992,اجاره تامين اجتماعي-سپهر991226,12,100025,1.00025E+11,998479,990001,1000000,"1,521.00",0.15,999999,"1,520.00",0.15,990001,1000000
اخزا721,اسنادخزانه-م21بودجه97-000728,11,4919,4326337584,882122,879501,879536,"-2,586.00",-0.29,879516,"-2,606.00",-0.30,879501,880000
تاپكيشح,ح.تجارت الكترونيك پارسيان كيش,11,108638,2017297810,18925,19871,18520,-405.00,-2.14,18569,-356.00,-1.88,18520,19871
پارسيانح,ح.بيمه پارسيان,11,91877,826893000,9000,9000,9000,0,0,9000,0,0,9000,9000
ضخوز2013,اختيارخ فخوز-12000-1400/02/15,10,667,1501765000,2238,2199,2260,22.00,0.98,2252,14.00,0.63,2199,2265
ضسپا1105,اختيارخ خساپا-3500-1399/11/26,10,1000,1000000,1,1,1,0,0,1,0,0,1,1
عيار2,صندوق س. پشتوانه طلاي مفيد,10,100000,100000,27118,1,1,"-27,117.00",-100.00,1,"-27,117.00",-100.00,1,1
ضخود2013,اختيارخ خودرو-7000-1400/02/08,10,621,13840000,14,26,21,7.00,50.00,22,8.00,57.14,20,27
اخزا906,اسنادخزانه-م6بودجه99-020321,10,3930,2684776831,671969,700000,695985,"24,016.00",3.57,683149,"11,180.00",1.66,645175,700000
ضبدر1160,اختيارخ شبندر-18000-1399/11/19,10,162,392190000,314,2000,2500,"2,186.00",696.18,2421,"2,107.00",671.02,1888,2500
ضجار2002,اختيارخ وتجارت-2500-1400/02/22,10,276,175113000,513,698,655,142.00,27.68,634,121.00,23.59,630,699
تملي804,تسهيلات مسكن ب. ملي-تير98,9,356,190346436,562822,534681,534681,"-28,141.00",-5.00,534681,"-28,141.00",-5.00,534681,534681
زير0003پ01,زيره سبز0003كيميابذر(پ),8,270,134598560,520600,509404,509404,"-11,196.00",-2.15,498513,"-22,087.00",-4.24,480000,509404
ضشنا2000,اختيارخ شپنا-9000-1400/02/27,8,60,187320000,2186,3050,3100,914.00,41.81,3122,936.00,42.82,3050,3150
ضملت1127,اختيارخ وبملت-5000-1399/11/28,8,494,1143000,1,1,3,2.00,200.00,2,1.00,100.00,1,3
ضخود2010,اختيارخ خودرو-4500-1400/02/08,8,395,31645000,98,82,77,-21.00,-21.43,80,-18.00,-18.37,77,82
تصميم2,صندوق س با درآمد ثابت تصميم,8,7400000,7400000,15576,1,1,"-15,575.00",-99.99,1,"-15,575.00",-99.99,1,1
اخزا820,اسنادخزانه-م20بودجه98-020806,8,5511,3343638659,605595,606618,609000,"3,405.00",0.56,606721,"1,126.00",0.19,604850,609000
زعف0008پ20,زعفران0008نگين وحدت جام(پ),8,5646,698932800,123056,123800,123798,742.00,0.60,123793,737.00,0.60,123500,123800
وآذر2,سرمايه‌گذاري‌توسعه‌آذربايجان‌,7,9990000,8.991E+11,93530,90000,90000,"-3,530.00",-3.77,90000,"-3,530.00",-3.77,90000,90000
اراد65,مرابحه عام دولتي65-ش.خ0210,7,1300000,1.20509E+12,926920,926990,926990,70.00,0.01,926990,70.00,0.01,926990,926990
ضجار2001,اختيارخ وتجارت-2000-1400/02/22,7,65,79376000,797,1250,1160,363.00,45.55,1221,424.00,53.20,1160,1250
اراد70,مرابحه عام دولت70-ش.خ0112,7,1100000,1.0358E+12,941570,941640,941640,70.00,0.01,941640,70.00,0.01,941640,941640
ضبدر1157,اختيارخ شبندر-20000-1399/11/19,7,116,52300000,10,60,500,490.00,"4,900.00",451,441.00,"4,410.00",60,600
خبازرس,بازرسي مهندسي و صنعتي ايران,6,17900,451939200,24513,25248,25248,735.00,3.00,24529,16.00,0.07,25248,25248
اخزا807,اسنادخزانه-م7بودجه98-000719,6,2716,2399609274,885764,883502,883525,"-2,239.00",-0.25,883509,"-2,255.00",-0.25,883502,883525
ضملت1128,اختيارخ وبملت-6000-1399/11/28,6,221,221000,1,1,1,0,0,1,0,0,1,1
ضپيك2010,اختيارخ تاپيكو-12000-00/02/19,6,41,83900000,1957,1900,2050,93.00,4.75,2046,89.00,4.55,1900,2050
تملي701,تسهيلات مسكن ب. ملي-فروردين97,6,109,64880942,566894,595238,595238,"28,344.00",5.00,595238,"28,344.00",5.00,595238,595238
شستا991,اجاره تامين اجتماعي-امين991226,5,76,74670354,993543,999999,970011,"-23,532.00",-2.37,982505,"-11,038.00",-1.11,970004,999999
زعف0008پ08,زعفران0008نگين روستا(پ),5,2400,297958000,123953,124100,124399,446.00,0.36,124149,196.00,0.16,123500,124399
كرونا2,تامين مالي جمعي صرفا اهداي سود,5,1000,10000000,10000,10000,10000,0,0,10000,0,0,10000,10000
كاردان2,صندوق س تجارت شاخصي كاردان,5,500000,500000,145460,1,1,"-145,459.00",-100.00,1,"-145,459.00",-100.00,1,1
تملي806,تسهيلات مسكن ب. ملي-شهريور98,5,86,66211658,733241,769903,769903,"36,662.00",5.00,769903,"36,662.00",5.00,769903,769903
ضملي3000,اختيارخ فملي-8000-1400/03/02,5,18,54400000,2036,3000,3000,964.00,47.35,3022,986.00,48.43,3000,3200
اخزا805,اسنادخزانه-م5بودجه98-000422,5,2643,2439688860,925887,924000,923020,"-2,867.00",-0.31,923076,"-2,811.00",-0.30,923020,924000
ضغدر1121,اختيارخ وغدير-14000-1399/11/26,5,135,309000,12,2,2,-10.00,-83.33,2,-10.00,-83.33,2,5
ضصاد3003,اختيارخ وبصادر-3000-1400/03/12,5,24,9580000,449,399,400,-49.00,-10.91,399,-50.00,-11.14,399,400
وسمازن,س.سهام عدالت استان مازندران,5,32474,30200820,970,930,930,-40.00,-4.12,970,0,0,930,930
اخزا904,اسنادخزانه-م4بودجه99-011215,5,47793,32977170000,689511,690000,690000,489.00,0.07,690000,489.00,0.07,690000,690000
ضملت1125,اختيارخ وبملت-4000-1399/11/28,4,64,9712000,139,158,150,11.00,7.91,152,13.00,9.35,150,158
اخزا909,اسنادخزانه-م9بودجه99-020316,4,3058,1980947500,650051,648550,647500,"-2,551.00",-0.39,647792,"-2,259.00",-0.35,647500,648550
كابگن,توليدي و صنعتي آبگينه‌,4,2036,10444680,5080,5130,5130,50.00,0.98,5080,0,0,5130,5130
ياقوت2,صندوق س ياقوت آگاه-ثابت,4,36280000,36280000,11837,1,1,"-11,836.00",-99.99,1,"-11,836.00",-99.99,1,1
ضملت1129,اختيارخ وبملت-7000-1399/11/28,4,305,305000,1,1,1,0,0,1,0,0,1,1
وسكرشا,س.سهام عدالت استان كرمانشاه,4,50000,60000000,1260,1200,1200,-60.00,-4.76,1260,0,0,1200,1200
ضجار2003,اختيارخ وتجارت-3000-1400/02/22,4,30,14262000,328,485,475,147.00,44.82,475,147.00,44.82,474,485
ضگل1141,اختيارخ كگل-14000-1399/11/21,4,9,24700000,4200,3000,2700,"-1,500.00",-35.71,2744,"-1,456.00",-34.67,2500,3000
ساذري,آذريت‌,3,675,4045950,5820,5994,5994,174.00,2.99,5820,0,0,5994,5994
شسم,توليد سموم‌ علف‌ كش,3,87,7802682,87928,89686,89686,"1,758.00",2.00,87929,1.00,0,89686,89686
ضپار1118,اختيارخ خپارس-8000-1399/11/19,3,71,71000,1,1,1,0,0,1,0,0,1,1
صخود412,ص مرابحه خودرو412- 3ماهه 18%,3,30000,29829600000,994320,994320,994320,0,0,994320,0,0,994320,994320
ضچاد2004,اختيارخ كچاد-20000-1400/02/05,3,3,6999000,1500,2000,2500,"1,000.00",66.67,2333,833.00,55.53,2000,2500
وسلرستا,شركت س استان لرستان,3,29321,25216060,900,860,860,-40.00,-4.44,900,0,0,860,860
ضفار3001,اختيارخ فارس-9000-1400/03/05,3,22,43400000,1600,1600,1600,0,0,1973,373.00,23.31,1600,2420
اخزا720,اسنادخزانه-م20بودجه97-000324,3,2017,1895651782,937698,940000,935027,"-2,671.00",-0.28,939837,"2,139.00",0.23,935027,940000
ضخود2011,اختيارخ خودرو-5000-1400/02/08,3,60,3360000,70,56,56,-14.00,-20.00,56,-14.00,-20.00,56,56
ضشنا2010,اختيارخ شپنا-8000-1400/02/27,3,40,164000000,3800,4000,4200,400.00,10.53,4100,300.00,7.89,4000,4200
ضفلا1157,اختيارخ فولاد-18000-1399/11/28,3,21,21000,1,1,1,0,0,1,0,0,1,1
ضپاس2003,اختيارخ وپارس-3500-1400/02/29,3,120,48000000,200,400,400,200.00,100.00,400,200.00,100.00,400,400
خعمرا,توسعه و عمران شهرستان نائين,3,10600,241807200,22148,22812,22812,664.00,3.00,22156,8.00,0.04,22812,22812
پست0008پ02,پسته فندقي32-30طلاسبززرند0008,3,3,4044239,1240000,1378508,1287223,"47,223.00",3.81,1348080,"108,080.00",8.72,1287223,1378508
تملي711,تسهيلات مسكن ب. ملي-بهمن97,3,9,5840082,683050,648898,648898,"-34,152.00",-5.00,648898,"-34,152.00",-5.00,648898,648898
اخزا716,اسنادخزانه-م16بودجه97-000407,2,1665,1551780000,932000,932000,932000,0,0,932000,0,0,932000,932000
وسمركز,شركت س استان مركزي,2,8492,11294360,1400,1330,1330,-70.00,-5.00,1400,0,0,1330,1330
ضجار2005,اختيارخ وتجارت-4000-1400/02/22,2,15,1820000,118,121,122,4.00,3.39,121,3.00,2.54,121,122
ضپار1126,اختيارخ خپارس-4500-1399/11/19,2,14,15556000,865,578,1200,335.00,38.73,1111,246.00,28.44,578,1200
ضپار1116,اختيارخ خپارس-6000-1399/11/19,2,2,11000,1,10,1,0,0,5,4.00,400.00,1,10
زعف0008پ12,زعفران0008پوشالمعمول سحرخيز(پ),2,200,16599900,80597,82999,83000,"2,403.00",2.98,82999,"2,402.00",2.98,82999,83000
پست0008پ08,پسته فندقي32-30مه ولات0008(پ),2,125,164250025,1312865,1310001,1315000,"2,135.00",0.16,1314000,"1,135.00",0.09,1310001,1315000
تملي803,تسهيلات مسكن ب. ملي-خرداد98,2,10,5345710,562706,534571,534571,"-28,135.00",-5.00,534571,"-28,135.00",-5.00,534571,534571
اخزا722,اسنادخزانه-م22بودجه97-000428,2,12377,11405535268,924000,921511,921510,"-2,490.00",-0.27,921510,"-2,490.00",-0.27,921510,921511
ضسپا3000,اختيارخ خساپا-1400-1400/03/26,2,150,159800000,983,1000,1098,115.00,11.70,1065,82.00,8.34,1000,1098
اخزا723,اسنادخزانه-م23بودجه97-000824,2,101,87799009,870000,869300,869009,-991.00,-0.11,869297,-703.00,-0.08,869009,869300
صبا1401,اجاره مهندسي صبا نفت14010225,2,200,194061000,983262,970305,970305,"-12,957.00",-1.32,970305,"-12,957.00",-1.32,970305,970305
شتهران,داروسازي تهران شيمي,2,7519,60129443,7690,7997,7997,307.00,3.99,7692,2.00,0.03,7997,7997
ضپاس2005,اختيارخ وپارس-4500-1400/02/29,2,22,15400000,1,300,1100,"1,099.00","109,900.00",700,699.00,"69,900.00",300,1100
اخزا9062,اسنادخزانه-م6بودجه99-020321,2,456000,2.964E+11,671969,650000,650000,"-21,969.00",-3.27,650000,"-21,969.00",-3.27,650000,650000
اخزا804,اسنادخزانه-م4بودجه98-000421,2,31,28706633,926052,926020,926033,-19.00,0,926020,-32.00,0,926020,926033
سپرمي,پرميت‌,2,12432,106629264,8493,8577,8577,84.00,0.99,8495,2.00,0.02,8577,8577
ضفلا3001,اختيارخ فولاد-8000-1400/03/19,2,20,80600000,4409,4030,4030,-379.00,-8.60,4030,-379.00,-8.60,4030,4030
تملي703,تسهيلات مسكن ب. ملي-خرداد97,2,11,5466604,523119,496964,496964,"-26,155.00",-5.00,496964,"-26,155.00",-5.00,496964,496964
ضجار2004,اختيارخ وتجارت-3500-1400/02/22,2,3,658000,175,200,229,54.00,30.86,219,44.00,25.14,200,229
وسقم,شركت س استان قم,2,59621,79892140,1410,1340,1340,-70.00,-4.96,1410,0,0,1340,1340
اخزا713,اسنادخزانه-م13بودجه97-000518,2,40,36441850,915001,911046,911047,"-3,954.00",-0.43,911046,"-3,955.00",-0.43,911046,911047
ضجار2000,اختيارخ وتجارت-1800-1400/02/22,2,40,51700000,1090,1240,1310,220.00,20.18,1292,202.00,18.53,1240,1310
ضفلا1156,اختيارخ فولاد-16000-1399/11/28,2,8,8000,1,1,1,0,0,1,0,0,1,1
پا ر 29,بار پايه روز 29,2,31000,11780000,385,380,380,-5.00,-1.30,380,-5.00,-1.30,380,380
ضصاد3002,اختيارخ وبصادر-2500-1400/03/12,2,100,45020000,303,455,450,147.00,48.51,450,147.00,48.51,450,455
پا ر 32,بار پايه روز 32,2,31000,11780000,385,380,380,-5.00,-1.30,380,-5.00,-1.30,380,380
پا ر 30,بار پايه روز 30,2,31000,11780000,385,380,380,-5.00,-1.30,380,-5.00,-1.30,380,380
پا ر 31,بار پايه روز 31,2,31000,11780000,385,380,380,-5.00,-1.30,380,-5.00,-1.30,380,380
ضفلا3000,اختيارخ فولاد-7000-1400/03/19,1,20,97600000,4100,4880,4880,780.00,19.02,4880,780.00,19.02,4880,4880
تسه98012,امتياز تسهيلات مسكن فروردين98,1,108,1080,618995,10,10,"-618,985.00",-100.00,10,"-618,985.00",-100.00,10,10
اخزا810,اسنادخزانه-م10بودجه98-001006,1,188,160561024,854048,854048,854048,0,0,854048,0,0,854048,854048
تملي705,تسهيلات مسكن ب. ملي-مرداد97,1,10,5484400,577305,548440,548440,"-28,865.00",-5.00,548440,"-28,865.00",-5.00,548440,548440
افران2,صندوق س افرا نماد پايدار-ثابت,1,4000000,4000000,12611,1,1,"-12,610.00",-99.99,1,"-12,610.00",-99.99,1,1
هصيكو402,اختيارف ت تاصيكو13500-00/02/20,1,1000,2146000,1800,2146,2146,346.00,19.22,2146,346.00,19.22,2146,2146
تملي707,تسهيلات مسكن ب. ملي-مهر97,1,7,5375146,808292,767878,767878,"-40,414.00",-5.00,767878,"-40,414.00",-5.00,767878,767878
ضشنا2003,اختيارخ شپنا-14000-1400/02/27,1,31,31000000,696,1000,1000,304.00,43.68,1000,304.00,43.68,1000,1000
اراد43,مرابحه عام دولت4-ش.خ 0205,1,10000,9550000000,980000,955000,955000,"-25,000.00",-2.55,955000,"-25,000.00",-2.55,955000,955000
تملي709,تسهيلات مسكن ب. ملي-آذر97,1,8,5005704,658645,625713,625713,"-32,932.00",-5.00,625713,"-32,932.00",-5.00,625713,625713
وسخراش,شركت س استان خراسان شمالي,1,4000,5240000,1370,1310,1310,-60.00,-4.38,1370,0,0,1310,1310
خاتم2,صندوق س خاتم ايساتيس پويا-ثابت,1,1000000,1000000,10502,1,1,"-10,501.00",-99.99,1,"-10,501.00",-99.99,1,1
ضملت1130,اختيارخ وبملت-8000-1399/11/28,1,30,30000,1,1,1,0,0,1,0,0,1,1
هفارس912,اختيارف ت فارس-14576-99/12/13,1,3200,19318400,5206,6037,6037,831.00,15.96,6037,831.00,15.96,6037,6037
حفاري2,حفاري شمال,1,47371000,4.86974E+11,10280,10280,10280,0,0,10280,0,0,10280,10280
صگل1411,ص اجاره گل گهر 1411-3 ماهه 17%,1,6,5880000,958000,980000,980000,"22,000.00",2.30,980000,"22,000.00",2.30,980000,980000
پست0008پ09,پسته بادامي30-28مه ولات0008(پ),1,10,13000000,1305000,1300000,1300000,"-5,000.00",-0.38,1300000,"-5,000.00",-0.38,1300000,1300000
تملي807,تسهيلات مسكن ب. ملي-مهر98,1,8,6068664,798508,758583,758583,"-39,925.00",-5.00,758583,"-39,925.00",-5.00,758583,758583
تملي702,تسهيلات مسكن ب. ملي-ارديبهشت97,1,8,5229488,688090,653686,653686,"-34,404.00",-5.00,653686,"-34,404.00",-5.00,653686,653686
تسه98022,امتياز تسهيلات مسكن ارديبهشت98,1,52,520,625967,10,10,"-625,957.00",-100.00,10,"-625,957.00",-100.00,10,10
بتك,كارخانجات كابل سازي‌ تك‌,1,600,20716800,33851,34528,34528,677.00,2.00,33852,1.00,0,34528,34528
ضبدر3002,اختيارخ شبندر-18000-1400/03/30,1,10,57000000,3262,5700,5700,"2,438.00",74.74,5700,"2,438.00",74.74,5700,5700
ضملي3001,اختيارخ فملي-9000-1400/03/02,1,50,120000000,2000,2400,2400,400.00,20.00,2400,400.00,20.00,2400,2400
رطب0002پ01,رطب مضافتي0002افشارتعاون بم(پ),1,1,209890,209892,209890,209890,-2.00,0,209890,-2.00,0,209890,209890
شستا004,اجاره تامين اجتماعي-نوين000523,1,13,12870000,990000,990000,990000,0,0,990000,0,0,990000,990000
شلرد02,كود شيميايي اوره لردگان,1,20,19860000,1002420,993000,993000,"-9,420.00",-0.94,993000,"-9,420.00",-0.94,993000,993000
ضخوز2014,اختيارخ فخوز-14000-1400/02/15,1,1,2260000,1399,2260,2260,861.00,61.54,2260,861.00,61.54,2260,2260
ضگل1149,اختيارخ كگل-10000-1399/11/21,1,1,7588000,7763,7588,7588,-175.00,-2.25,7588,-175.00,-2.25,7588,7588
پا ر 33,بار پايه روز 33,1,30000,11400000,385,380,380,-5.00,-1.30,380,-5.00,-1.30,380,380
ضصاد3001,اختيارخ وبصادر-2000-1400/03/12,1,20,16000000,552,800,800,248.00,44.93,800,248.00,44.93,800,800
اشاد10,مشاركت دولتي10-شرايط خاص001226,1,100,96000000,951002,960000,960000,"8,998.00",0.95,960000,"8,998.00",0.95,960000,960000
مشير112,مشاركت شهرداري شيراز-3ماهه18%,1,18,17820000,990000,990000,990000,0,0,990000,0,0,990000,990000
تملي704,تسهيلات مسكن ب. ملي-تير97,1,5,5618595,1182862,1123719,1123719,"-59,143.00",-5.00,1123719,"-59,143.00",-5.00,1123719,1123719
تملي802,تسهيلات مسكن ب. ملي-ارديبهشت98,1,7,5880819,884333,840117,840117,"-44,216.00",-5.00,840117,"-44,216.00",-5.00,840117,840117
اوصتا4,صندوق انديشه ورزان صباتامين -د,1,28100000,5.01107E+11,17836,17833,17833,-3.00,-0.02,17833,-3.00,-0.02,17833,17833
پا ر 27,بار پايه روز 27,1,30000,11400000,390,380,380,-10.00,-2.56,380,-10.00,-2.56,380,380
تفيرو,مهندسي فيروزا,1,100,1948200,19100,19482,19482,382.00,2.00,19100,0,0,19482,19482
وسزنجان,شركت س استان زنجان,1,4500,6075000,1420,1350,1350,-70.00,-4.93,1420,0,0,1350,1350
ضچاد2001,اختيارخ كچاد-14000-1400/02/05,1,5,30000000,5026,6000,6000,974.00,19.38,6000,974.00,19.38,6000,6000
ضپيك2009,اختيارخ تاپيكو-10000-00/02/19,1,1,2900000,2000,2900,2900,900.00,45.00,2900,900.00,45.00,2900,2900
صگل411,ص اجاره گل گهر 411- 3 ماهه 17%,1,2690,2636200000,980000,980000,980000,0,0,980000,0,0,980000,980000
تملي706,تسهيلات مسكن ب. ملي-شهريور97,1,10,5355990,563788,535599,535599,"-28,189.00",-5.00,535599,"-28,189.00",-5.00,535599,535599
فبستم,صنايع ‌بسته‌بندي‌ مشهد,1,1206,984096,793,816,816,23.00,2.90,793,0,0,816,816
پا ر 26,بار پايه روز 26,1,30000,11400000,390,380,380,-10.00,-2.56,380,-10.00,-2.56,380,380
كشم0001پ01,كشمش سبز0001خليل آباد(پ),1,7,5334000,761044,762000,762000,956.00,0.13,762000,956.00,0.13,762000,762000
تملي710,تسهيلات مسكن ب. ملي-دي97,1,9,5247477,613740,583053,583053,"-30,687.00",-5.00,583053,"-30,687.00",-5.00,583053,583053
ضترا3001,اختيارخ شتران-7000-1400/03/09,1,20,58000000,1891,2900,2900,"1,009.00",53.36,2900,"1,009.00",53.36,2900,2900
شستا994,اجاره تامين اجتماعي-نوين991226,1,20,19870000,985014,993500,993500,"8,486.00",0.86,993500,"8,486.00",0.86,993500,993500
زعف0008پ15,زعفران0008پوشالمعمول طلاسرخ(پ),1,120,9959880,82288,82999,82999,711.00,0.86,82999,711.00,0.86,82999,82999
تملي612,تسهيلات مسكن بانك ملي-اسفند96,1,8,5748416,756370,718552,718552,"-37,818.00",-5.00,718552,"-37,818.00",-5.00,718552,718552
وملل2,اعتباري ملل,1,99000000,1.43867E+12,14532,14532,14532,0,0,14532,0,0,14532,14532
تملي712,تسهيلات مسكن ب. ملي-اسفند97,1,7,5647047,849180,806721,806721,"-42,459.00",-5.00,806721,"-42,459.00",-5.00,806721,806721
ضفلا3002,اختيارخ فولاد-9000-1400/03/19,1,20,64000000,2331,3200,3200,869.00,37.28,3200,869.00,37.28,3200,3200
ضپاس2000,اختيارخ وپارس-2000-1400/02/29,1,1,1250000,857,1250,1250,393.00,45.86,1250,393.00,45.86,1250,1250
زير0003پ02,زيره سبز0003 دانش(پ),1,11,5390000,480978,490000,490000,"9,022.00",1.88,490000,"9,022.00",1.88,490000,490000
قلرست4,قند لرستان‌,1,1000000,32680000000,33440,32680,32680,-760.00,-2.27,32680,-760.00,-2.27,32680,32680
اخزا8052,اسنادخزانه-م5بودجه98-000422,1,1000000,9.225E+11,925887,922500,922500,"-3,387.00",-0.37,922500,"-3,387.00",-0.37,922500,922500
افاد1,منفعت دولت-با شرايط خاص140006,1,20000,20000000000,1000000,1000000,1000000,0,0,1000000,0,0,1000000,1000000
اراد534,مرابحه عام دولت5-ش.خ 0207,1,3000000,2.823E+12,958293,941000,941000,"-17,293.00",-1.80,941000,"-17,293.00",-1.80,941000,941000
ميدكو2,هلدينگ صنايع  معدني خاورميانه,1,23000000,7.05801E+11,30687,30687,30687,0,0,30687,0,0,30687,30687
ضچاد2000,اختيارخ كچاد-12000-1400/02/05,1,5,37500000,6500,7500,7500,"1,000.00",15.38,7500,"1,000.00",15.38,7500,7500
ضصاد3000,اختيارخ وبصادر-1800-1400/03/12,1,10,10500000,776,1050,1050,274.00,35.31,1050,274.00,35.31,1050,1050
ضفلا3004,اختيارخ فولاد-12000-1400/03/19,1,10,15000000,1,1500,1500,"1,499.00","149,900.00",1500,"1,499.00","149,900.00",1500,1500
پا ر 28,بار پايه روز 28,1,30000,11400000,385,380,380,-5.00,-1.30,380,-5.00,-1.30,380,380
اراد22,مرابحه عام دولت2-ش.خ لوتوس0212,1,3000,2970000000,1000000,990000,990000,"-10,000.00",-1.00,990000,"-10,000.00",-1.00,990000,990000
,,,,,,,,,,,,,,
,,,,,,,,,,,,,,
